(module JST-B3B-ZR (layer F.Cu) (tedit 5B2F7E0C)
  (fp_text reference REF** (at 4.1 2.3) (layer F.SilkS)
    (effects (font (size 1 1) (thickness 0.15)))
  )
  (fp_text value JST-B3B-ZR (at 3.6 -3.2) (layer F.Fab)
    (effects (font (size 1 1) (thickness 0.15)))
  )
  (fp_line (start -1.5 -2.2) (end 4.5 -2.2) (layer F.SilkS) (width 0.15))
  (fp_line (start -1.5 1.3) (end 4.5 1.3) (layer F.SilkS) (width 0.15))
  (fp_line (start 4.5 1.3) (end 4.5 -2.2) (layer F.SilkS) (width 0.15))
  (fp_line (start -1.5 1.3) (end -1.5 -2.2) (layer F.SilkS) (width 0.15))
  (pad 3 thru_hole circle (at 3 0) (size 1.2 1.2) (drill 0.7) (layers *.Cu *.Mask))
  (pad 2 thru_hole circle (at 1.5 0) (size 1.2 1.2) (drill 0.7) (layers *.Cu *.Mask))
  (pad 1 thru_hole circle (at 0 0) (size 1.2 1.2) (drill 0.7) (layers *.Cu *.Mask))
)
