ISO-10303-21;
HEADER;
FILE_DESCRIPTION(('FreeCAD Model'),'2;1');
FILE_NAME(
'C:\\Programy\\KiCad\\MyLibrary\\Kicad-Lib\\3DModel\\
JST_B5B_ZR_1.55mm.step','2018-06-24T16:56:23',('kicad StepUp'),(
    'ksu MCAD'),'Open CASCADE STEP processor 7.2','FreeCAD','Unknown');
FILE_SCHEMA(('AUTOMOTIVE_DESIGN { 1 0 10303 214 1 1 1 1 }'));
ENDSEC;
DATA;
#1 = APPLICATION_PROTOCOL_DEFINITION('international standard',
  'automotive_design',2000,#2);
#2 = APPLICATION_CONTEXT(
  'core data for automotive mechanical design processes');
#3 = SHAPE_DEFINITION_REPRESENTATION(#4,#10);
#4 = PRODUCT_DEFINITION_SHAPE('','',#5);
#5 = PRODUCT_DEFINITION('design','',#6,#9);
#6 = PRODUCT_DEFINITION_FORMATION('','',#7);
#7 = PRODUCT('JST_B5B_ZR_1.55mm','JST_B5B_ZR_1.55mm','',(#8));
#8 = PRODUCT_CONTEXT('',#2,'mechanical');
#9 = PRODUCT_DEFINITION_CONTEXT('part definition',#2,'design');
#10 = ADVANCED_BREP_SHAPE_REPRESENTATION('',(#11,#15),#1679);
#11 = AXIS2_PLACEMENT_3D('',#12,#13,#14);
#12 = CARTESIAN_POINT('',(0.E+000,0.E+000,0.E+000));
#13 = DIRECTION('',(0.E+000,0.E+000,1.));
#14 = DIRECTION('',(1.,0.E+000,-0.E+000));
#15 = MANIFOLD_SOLID_BREP('',#16);
#16 = CLOSED_SHELL('',(#17,#125,#156,#187,#318,#335,#391,#422,#519,#543,
    #599,#639,#734,#751,#776,#808,#840,#858,#890,#908,#940,#972,#990,
    #1007,#1025,#1043,#1074,#1091,#1108,#1120,#1142,#1159,#1271,#1283,
    #1300,#1317,#1329,#1339,#1349,#1359,#1369,#1379,#1411,#1443,#1461,
    #1493,#1525,#1543,#1575,#1593,#1611,#1629,#1639,#1649,#1659,#1669));
#17 = ADVANCED_FACE('',(#18,#52,#86),#120,.F.);
#18 = FACE_BOUND('',#19,.T.);
#19 = EDGE_LOOP('',(#20,#30,#38,#46));
#20 = ORIENTED_EDGE('',*,*,#21,.F.);
#21 = EDGE_CURVE('',#22,#24,#26,.T.);
#22 = VERTEX_POINT('',#23);
#23 = CARTESIAN_POINT('',(6.3,-1.3,2.85));
#24 = VERTEX_POINT('',#25);
#25 = CARTESIAN_POINT('',(6.3,-1.3,1.85));
#26 = LINE('',#27,#28);
#27 = CARTESIAN_POINT('',(6.3,-1.3,2.85));
#28 = VECTOR('',#29,1.);
#29 = DIRECTION('',(0.E+000,-2.22044604925E-016,-1.));
#30 = ORIENTED_EDGE('',*,*,#31,.F.);
#31 = EDGE_CURVE('',#32,#22,#34,.T.);
#32 = VERTEX_POINT('',#33);
#33 = CARTESIAN_POINT('',(7.,-1.3,2.85));
#34 = LINE('',#35,#36);
#35 = CARTESIAN_POINT('',(7.,-1.3,2.85));
#36 = VECTOR('',#37,1.);
#37 = DIRECTION('',(-1.,0.E+000,0.E+000));
#38 = ORIENTED_EDGE('',*,*,#39,.F.);
#39 = EDGE_CURVE('',#40,#32,#42,.T.);
#40 = VERTEX_POINT('',#41);
#41 = CARTESIAN_POINT('',(7.,-1.3,1.85));
#42 = LINE('',#43,#44);
#43 = CARTESIAN_POINT('',(7.,-1.3,2.85));
#44 = VECTOR('',#45,1.);
#45 = DIRECTION('',(0.E+000,2.22044604925E-016,1.));
#46 = ORIENTED_EDGE('',*,*,#47,.F.);
#47 = EDGE_CURVE('',#24,#40,#48,.T.);
#48 = LINE('',#49,#50);
#49 = CARTESIAN_POINT('',(7.,-1.3,1.85));
#50 = VECTOR('',#51,1.);
#51 = DIRECTION('',(1.,0.E+000,0.E+000));
#52 = FACE_BOUND('',#53,.T.);
#53 = EDGE_LOOP('',(#54,#64,#72,#80));
#54 = ORIENTED_EDGE('',*,*,#55,.F.);
#55 = EDGE_CURVE('',#56,#58,#60,.T.);
#56 = VERTEX_POINT('',#57);
#57 = CARTESIAN_POINT('',(-0.3,-1.3,1.85));
#58 = VERTEX_POINT('',#59);
#59 = CARTESIAN_POINT('',(-0.3,-1.3,2.85));
#60 = LINE('',#61,#62);
#61 = CARTESIAN_POINT('',(-0.3,-1.3,2.85));
#62 = VECTOR('',#63,1.);
#63 = DIRECTION('',(0.E+000,2.22044604925E-016,1.));
#64 = ORIENTED_EDGE('',*,*,#65,.F.);
#65 = EDGE_CURVE('',#66,#56,#68,.T.);
#66 = VERTEX_POINT('',#67);
#67 = CARTESIAN_POINT('',(-1.,-1.3,1.85));
#68 = LINE('',#69,#70);
#69 = CARTESIAN_POINT('',(-1.,-1.3,1.85));
#70 = VECTOR('',#71,1.);
#71 = DIRECTION('',(1.,0.E+000,0.E+000));
#72 = ORIENTED_EDGE('',*,*,#73,.F.);
#73 = EDGE_CURVE('',#74,#66,#76,.T.);
#74 = VERTEX_POINT('',#75);
#75 = CARTESIAN_POINT('',(-1.,-1.3,2.85));
#76 = LINE('',#77,#78);
#77 = CARTESIAN_POINT('',(-1.,-1.3,2.85));
#78 = VECTOR('',#79,1.);
#79 = DIRECTION('',(0.E+000,-2.22044604925E-016,-1.));
#80 = ORIENTED_EDGE('',*,*,#81,.F.);
#81 = EDGE_CURVE('',#58,#74,#82,.T.);
#82 = LINE('',#83,#84);
#83 = CARTESIAN_POINT('',(-1.,-1.3,2.85));
#84 = VECTOR('',#85,1.);
#85 = DIRECTION('',(-1.,0.E+000,0.E+000));
#86 = FACE_BOUND('',#87,.T.);
#87 = EDGE_LOOP('',(#88,#98,#106,#114));
#88 = ORIENTED_EDGE('',*,*,#89,.T.);
#89 = EDGE_CURVE('',#90,#92,#94,.T.);
#90 = VERTEX_POINT('',#91);
#91 = CARTESIAN_POINT('',(-1.5,-1.3,4.65));
#92 = VERTEX_POINT('',#93);
#93 = CARTESIAN_POINT('',(-1.5,-1.3,0.15));
#94 = LINE('',#95,#96);
#95 = CARTESIAN_POINT('',(-1.5,-1.3,0.15));
#96 = VECTOR('',#97,1.);
#97 = DIRECTION('',(0.E+000,-2.22044604925E-016,-1.));
#98 = ORIENTED_EDGE('',*,*,#99,.F.);
#99 = EDGE_CURVE('',#100,#92,#102,.T.);
#100 = VERTEX_POINT('',#101);
#101 = CARTESIAN_POINT('',(7.5,-1.3,0.15));
#102 = LINE('',#103,#104);
#103 = CARTESIAN_POINT('',(7.5,-1.3,0.15));
#104 = VECTOR('',#105,1.);
#105 = DIRECTION('',(-1.,0.E+000,0.E+000));
#106 = ORIENTED_EDGE('',*,*,#107,.F.);
#107 = EDGE_CURVE('',#108,#100,#110,.T.);
#108 = VERTEX_POINT('',#109);
#109 = CARTESIAN_POINT('',(7.5,-1.3,4.65));
#110 = LINE('',#111,#112);
#111 = CARTESIAN_POINT('',(7.5,-1.3,0.15));
#112 = VECTOR('',#113,1.);
#113 = DIRECTION('',(0.E+000,-2.22044604925E-016,-1.));
#114 = ORIENTED_EDGE('',*,*,#115,.T.);
#115 = EDGE_CURVE('',#108,#90,#116,.T.);
#116 = LINE('',#117,#118);
#117 = CARTESIAN_POINT('',(7.5,-1.3,4.65));
#118 = VECTOR('',#119,1.);
#119 = DIRECTION('',(-1.,0.E+000,0.E+000));
#120 = PLANE('',#121);
#121 = AXIS2_PLACEMENT_3D('',#122,#123,#124);
#122 = CARTESIAN_POINT('',(7.5,-1.3,0.15));
#123 = DIRECTION('',(0.E+000,1.,-2.22044604925E-016));
#124 = DIRECTION('',(-1.,0.E+000,0.E+000));
#125 = ADVANCED_FACE('',(#126),#151,.F.);
#126 = FACE_BOUND('',#127,.T.);
#127 = EDGE_LOOP('',(#128,#138,#144,#145));
#128 = ORIENTED_EDGE('',*,*,#129,.T.);
#129 = EDGE_CURVE('',#130,#132,#134,.T.);
#130 = VERTEX_POINT('',#131);
#131 = CARTESIAN_POINT('',(7.,-0.9,1.85));
#132 = VERTEX_POINT('',#133);
#133 = CARTESIAN_POINT('',(6.3,-0.9,1.85));
#134 = LINE('',#135,#136);
#135 = CARTESIAN_POINT('',(7.,-0.9,1.85));
#136 = VECTOR('',#137,1.);
#137 = DIRECTION('',(-1.,-1.423015351387E-016,3.15972881501E-032));
#138 = ORIENTED_EDGE('',*,*,#139,.T.);
#139 = EDGE_CURVE('',#132,#24,#140,.T.);
#140 = LINE('',#141,#142);
#141 = CARTESIAN_POINT('',(6.3,2.201,1.85));
#142 = VECTOR('',#143,1.);
#143 = DIRECTION('',(0.E+000,-1.,2.22044604925E-016));
#144 = ORIENTED_EDGE('',*,*,#47,.T.);
#145 = ORIENTED_EDGE('',*,*,#146,.F.);
#146 = EDGE_CURVE('',#130,#40,#147,.T.);
#147 = LINE('',#148,#149);
#148 = CARTESIAN_POINT('',(7.,2.201,1.85));
#149 = VECTOR('',#150,1.);
#150 = DIRECTION('',(0.E+000,-1.,2.22044604925E-016));
#151 = PLANE('',#152);
#152 = AXIS2_PLACEMENT_3D('',#153,#154,#155);
#153 = CARTESIAN_POINT('',(7.,2.201,1.85));
#154 = DIRECTION('',(0.E+000,-2.22044604925E-016,-1.));
#155 = DIRECTION('',(0.E+000,1.,-2.22044604925E-016));
#156 = ADVANCED_FACE('',(#157),#182,.F.);
#157 = FACE_BOUND('',#158,.T.);
#158 = EDGE_LOOP('',(#159,#169,#175,#176));
#159 = ORIENTED_EDGE('',*,*,#160,.T.);
#160 = EDGE_CURVE('',#161,#163,#165,.T.);
#161 = VERTEX_POINT('',#162);
#162 = CARTESIAN_POINT('',(6.3,-0.9,2.85));
#163 = VERTEX_POINT('',#164);
#164 = CARTESIAN_POINT('',(7.,-0.9,2.85));
#165 = LINE('',#166,#167);
#166 = CARTESIAN_POINT('',(7.,-0.9,2.85));
#167 = VECTOR('',#168,1.);
#168 = DIRECTION('',(1.,1.423015351387E-016,-3.15972881501E-032));
#169 = ORIENTED_EDGE('',*,*,#170,.T.);
#170 = EDGE_CURVE('',#163,#32,#171,.T.);
#171 = LINE('',#172,#173);
#172 = CARTESIAN_POINT('',(7.,2.201,2.85));
#173 = VECTOR('',#174,1.);
#174 = DIRECTION('',(0.E+000,-1.,2.22044604925E-016));
#175 = ORIENTED_EDGE('',*,*,#31,.T.);
#176 = ORIENTED_EDGE('',*,*,#177,.F.);
#177 = EDGE_CURVE('',#161,#22,#178,.T.);
#178 = LINE('',#179,#180);
#179 = CARTESIAN_POINT('',(6.3,2.201,2.85));
#180 = VECTOR('',#181,1.);
#181 = DIRECTION('',(0.E+000,-1.,2.22044604925E-016));
#182 = PLANE('',#183);
#183 = AXIS2_PLACEMENT_3D('',#184,#185,#186);
#184 = CARTESIAN_POINT('',(7.,2.201,2.85));
#185 = DIRECTION('',(0.E+000,2.22044604925E-016,1.));
#186 = DIRECTION('',(0.E+000,-1.,2.22044604925E-016));
#187 = ADVANCED_FACE('',(#188,#208,#228,#248,#268,#288),#313,.F.);
#188 = FACE_BOUND('',#189,.T.);
#189 = EDGE_LOOP('',(#190,#201));
#190 = ORIENTED_EDGE('',*,*,#191,.T.);
#191 = EDGE_CURVE('',#192,#194,#196,.T.);
#192 = VERTEX_POINT('',#193);
#193 = CARTESIAN_POINT('',(6.,-0.25,0.15));
#194 = VERTEX_POINT('',#195);
#195 = CARTESIAN_POINT('',(6.,0.25,0.15));
#196 = CIRCLE('',#197,0.25);
#197 = AXIS2_PLACEMENT_3D('',#198,#199,#200);
#198 = CARTESIAN_POINT('',(6.,1.110223024625E-015,0.15));
#199 = DIRECTION('',(-0.E+000,2.22044604925E-016,1.));
#200 = DIRECTION('',(0.E+000,-1.,2.22044604925E-016));
#201 = ORIENTED_EDGE('',*,*,#202,.T.);
#202 = EDGE_CURVE('',#194,#192,#203,.T.);
#203 = CIRCLE('',#204,0.25);
#204 = AXIS2_PLACEMENT_3D('',#205,#206,#207);
#205 = CARTESIAN_POINT('',(6.,1.110223024625E-015,0.15));
#206 = DIRECTION('',(-0.E+000,2.22044604925E-016,1.));
#207 = DIRECTION('',(0.E+000,-1.,2.22044604925E-016));
#208 = FACE_BOUND('',#209,.T.);
#209 = EDGE_LOOP('',(#210,#221));
#210 = ORIENTED_EDGE('',*,*,#211,.T.);
#211 = EDGE_CURVE('',#212,#214,#216,.T.);
#212 = VERTEX_POINT('',#213);
#213 = CARTESIAN_POINT('',(4.5,-0.25,0.15));
#214 = VERTEX_POINT('',#215);
#215 = CARTESIAN_POINT('',(4.5,0.25,0.15));
#216 = CIRCLE('',#217,0.25);
#217 = AXIS2_PLACEMENT_3D('',#218,#219,#220);
#218 = CARTESIAN_POINT('',(4.5,1.110223024625E-015,0.15));
#219 = DIRECTION('',(-0.E+000,2.22044604925E-016,1.));
#220 = DIRECTION('',(0.E+000,-1.,2.22044604925E-016));
#221 = ORIENTED_EDGE('',*,*,#222,.T.);
#222 = EDGE_CURVE('',#214,#212,#223,.T.);
#223 = CIRCLE('',#224,0.25);
#224 = AXIS2_PLACEMENT_3D('',#225,#226,#227);
#225 = CARTESIAN_POINT('',(4.5,1.110223024625E-015,0.15));
#226 = DIRECTION('',(-0.E+000,2.22044604925E-016,1.));
#227 = DIRECTION('',(0.E+000,-1.,2.22044604925E-016));
#228 = FACE_BOUND('',#229,.T.);
#229 = EDGE_LOOP('',(#230,#241));
#230 = ORIENTED_EDGE('',*,*,#231,.T.);
#231 = EDGE_CURVE('',#232,#234,#236,.T.);
#232 = VERTEX_POINT('',#233);
#233 = CARTESIAN_POINT('',(3.,-0.25,0.15));
#234 = VERTEX_POINT('',#235);
#235 = CARTESIAN_POINT('',(3.,0.25,0.15));
#236 = CIRCLE('',#237,0.25);
#237 = AXIS2_PLACEMENT_3D('',#238,#239,#240);
#238 = CARTESIAN_POINT('',(3.,1.110223024625E-015,0.15));
#239 = DIRECTION('',(-0.E+000,2.22044604925E-016,1.));
#240 = DIRECTION('',(0.E+000,-1.,2.22044604925E-016));
#241 = ORIENTED_EDGE('',*,*,#242,.T.);
#242 = EDGE_CURVE('',#234,#232,#243,.T.);
#243 = CIRCLE('',#244,0.25);
#244 = AXIS2_PLACEMENT_3D('',#245,#246,#247);
#245 = CARTESIAN_POINT('',(3.,1.110223024625E-015,0.15));
#246 = DIRECTION('',(-0.E+000,2.22044604925E-016,1.));
#247 = DIRECTION('',(0.E+000,-1.,2.22044604925E-016));
#248 = FACE_BOUND('',#249,.T.);
#249 = EDGE_LOOP('',(#250,#261));
#250 = ORIENTED_EDGE('',*,*,#251,.T.);
#251 = EDGE_CURVE('',#252,#254,#256,.T.);
#252 = VERTEX_POINT('',#253);
#253 = CARTESIAN_POINT('',(1.5,-0.25,0.15));
#254 = VERTEX_POINT('',#255);
#255 = CARTESIAN_POINT('',(1.5,0.25,0.15));
#256 = CIRCLE('',#257,0.25);
#257 = AXIS2_PLACEMENT_3D('',#258,#259,#260);
#258 = CARTESIAN_POINT('',(1.5,1.110223024625E-015,0.15));
#259 = DIRECTION('',(-0.E+000,2.22044604925E-016,1.));
#260 = DIRECTION('',(0.E+000,-1.,2.22044604925E-016));
#261 = ORIENTED_EDGE('',*,*,#262,.T.);
#262 = EDGE_CURVE('',#254,#252,#263,.T.);
#263 = CIRCLE('',#264,0.25);
#264 = AXIS2_PLACEMENT_3D('',#265,#266,#267);
#265 = CARTESIAN_POINT('',(1.5,1.110223024625E-015,0.15));
#266 = DIRECTION('',(-0.E+000,2.22044604925E-016,1.));
#267 = DIRECTION('',(0.E+000,-1.,2.22044604925E-016));
#268 = FACE_BOUND('',#269,.T.);
#269 = EDGE_LOOP('',(#270,#281));
#270 = ORIENTED_EDGE('',*,*,#271,.T.);
#271 = EDGE_CURVE('',#272,#274,#276,.T.);
#272 = VERTEX_POINT('',#273);
#273 = CARTESIAN_POINT('',(-6.258882301324E-015,-0.25,0.15));
#274 = VERTEX_POINT('',#275);
#275 = CARTESIAN_POINT('',(-6.258882301324E-015,0.25,0.15));
#276 = CIRCLE('',#277,0.25);
#277 = AXIS2_PLACEMENT_3D('',#278,#279,#280);
#278 = CARTESIAN_POINT('',(-2.6645352591E-015,1.110223024625E-015,0.15)
  );
#279 = DIRECTION('',(-0.E+000,2.22044604925E-016,1.));
#280 = DIRECTION('',(0.E+000,-1.,2.22044604925E-016));
#281 = ORIENTED_EDGE('',*,*,#282,.T.);
#282 = EDGE_CURVE('',#274,#272,#283,.T.);
#283 = CIRCLE('',#284,0.25);
#284 = AXIS2_PLACEMENT_3D('',#285,#286,#287);
#285 = CARTESIAN_POINT('',(-2.6645352591E-015,1.110223024625E-015,0.15)
  );
#286 = DIRECTION('',(-0.E+000,2.22044604925E-016,1.));
#287 = DIRECTION('',(0.E+000,-1.,2.22044604925E-016));
#288 = FACE_BOUND('',#289,.T.);
#289 = EDGE_LOOP('',(#290,#298,#306,#312));
#290 = ORIENTED_EDGE('',*,*,#291,.T.);
#291 = EDGE_CURVE('',#92,#292,#294,.T.);
#292 = VERTEX_POINT('',#293);
#293 = CARTESIAN_POINT('',(-1.5,2.2,0.15));
#294 = LINE('',#295,#296);
#295 = CARTESIAN_POINT('',(-1.5,-1.3,0.15));
#296 = VECTOR('',#297,1.);
#297 = DIRECTION('',(0.E+000,1.,-2.22044604925E-016));
#298 = ORIENTED_EDGE('',*,*,#299,.F.);
#299 = EDGE_CURVE('',#300,#292,#302,.T.);
#300 = VERTEX_POINT('',#301);
#301 = CARTESIAN_POINT('',(7.5,2.2,0.15));
#302 = LINE('',#303,#304);
#303 = CARTESIAN_POINT('',(7.5,2.2,0.15));
#304 = VECTOR('',#305,1.);
#305 = DIRECTION('',(-1.,0.E+000,0.E+000));
#306 = ORIENTED_EDGE('',*,*,#307,.F.);
#307 = EDGE_CURVE('',#100,#300,#308,.T.);
#308 = LINE('',#309,#310);
#309 = CARTESIAN_POINT('',(7.5,-1.3,0.15));
#310 = VECTOR('',#311,1.);
#311 = DIRECTION('',(0.E+000,1.,-2.22044604925E-016));
#312 = ORIENTED_EDGE('',*,*,#99,.T.);
#313 = PLANE('',#314);
#314 = AXIS2_PLACEMENT_3D('',#315,#316,#317);
#315 = CARTESIAN_POINT('',(7.5,-1.3,0.15));
#316 = DIRECTION('',(0.E+000,2.22044604925E-016,1.));
#317 = DIRECTION('',(0.E+000,-1.,2.22044604925E-016));
#318 = ADVANCED_FACE('',(#319),#330,.F.);
#319 = FACE_BOUND('',#320,.T.);
#320 = EDGE_LOOP('',(#321,#327,#328,#329));
#321 = ORIENTED_EDGE('',*,*,#322,.T.);
#322 = EDGE_CURVE('',#132,#161,#323,.T.);
#323 = LINE('',#324,#325);
#324 = CARTESIAN_POINT('',(6.3,-0.9,2.85));
#325 = VECTOR('',#326,1.);
#326 = DIRECTION('',(0.E+000,2.22044604925E-016,1.));
#327 = ORIENTED_EDGE('',*,*,#177,.T.);
#328 = ORIENTED_EDGE('',*,*,#21,.T.);
#329 = ORIENTED_EDGE('',*,*,#139,.F.);
#330 = PLANE('',#331);
#331 = AXIS2_PLACEMENT_3D('',#332,#333,#334);
#332 = CARTESIAN_POINT('',(6.3,2.201,2.85));
#333 = DIRECTION('',(-1.,0.E+000,0.E+000));
#334 = DIRECTION('',(0.E+000,-1.,2.22044604925E-016));
#335 = ADVANCED_FACE('',(#336),#386,.F.);
#336 = FACE_BOUND('',#337,.T.);
#337 = EDGE_LOOP('',(#338,#348,#356,#362,#363,#364,#372,#380));
#338 = ORIENTED_EDGE('',*,*,#339,.F.);
#339 = EDGE_CURVE('',#340,#342,#344,.T.);
#340 = VERTEX_POINT('',#341);
#341 = CARTESIAN_POINT('',(7.5,-0.35,2.85));
#342 = VERTEX_POINT('',#343);
#343 = CARTESIAN_POINT('',(7.5,0.45,2.85));
#344 = LINE('',#345,#346);
#345 = CARTESIAN_POINT('',(7.5,-0.35,2.85));
#346 = VECTOR('',#347,1.);
#347 = DIRECTION('',(0.E+000,1.,-2.22044604925E-016));
#348 = ORIENTED_EDGE('',*,*,#349,.F.);
#349 = EDGE_CURVE('',#350,#340,#352,.T.);
#350 = VERTEX_POINT('',#351);
#351 = CARTESIAN_POINT('',(7.5,-0.35,4.65));
#352 = LINE('',#353,#354);
#353 = CARTESIAN_POINT('',(7.5,-0.35,4.65));
#354 = VECTOR('',#355,1.);
#355 = DIRECTION('',(0.E+000,-4.134424284411E-017,-1.));
#356 = ORIENTED_EDGE('',*,*,#357,.T.);
#357 = EDGE_CURVE('',#350,#108,#358,.T.);
#358 = LINE('',#359,#360);
#359 = CARTESIAN_POINT('',(7.5,-1.3,4.65));
#360 = VECTOR('',#361,1.);
#361 = DIRECTION('',(0.E+000,-1.,2.22044604925E-016));
#362 = ORIENTED_EDGE('',*,*,#107,.T.);
#363 = ORIENTED_EDGE('',*,*,#307,.T.);
#364 = ORIENTED_EDGE('',*,*,#365,.T.);
#365 = EDGE_CURVE('',#300,#366,#368,.T.);
#366 = VERTEX_POINT('',#367);
#367 = CARTESIAN_POINT('',(7.5,2.2,4.65));
#368 = LINE('',#369,#370);
#369 = CARTESIAN_POINT('',(7.5,2.2,0.15));
#370 = VECTOR('',#371,1.);
#371 = DIRECTION('',(0.E+000,-4.525700801771E-016,1.));
#372 = ORIENTED_EDGE('',*,*,#373,.T.);
#373 = EDGE_CURVE('',#366,#374,#376,.T.);
#374 = VERTEX_POINT('',#375);
#375 = CARTESIAN_POINT('',(7.5,0.45,4.65));
#376 = LINE('',#377,#378);
#377 = CARTESIAN_POINT('',(7.5,-1.3,4.65));
#378 = VECTOR('',#379,1.);
#379 = DIRECTION('',(0.E+000,-1.,2.22044604925E-016));
#380 = ORIENTED_EDGE('',*,*,#381,.F.);
#381 = EDGE_CURVE('',#342,#374,#382,.T.);
#382 = LINE('',#383,#384);
#383 = CARTESIAN_POINT('',(7.5,0.45,4.65));
#384 = VECTOR('',#385,1.);
#385 = DIRECTION('',(0.E+000,1.015776968711E-016,1.));
#386 = PLANE('',#387);
#387 = AXIS2_PLACEMENT_3D('',#388,#389,#390);
#388 = CARTESIAN_POINT('',(7.5,-1.3,4.65));
#389 = DIRECTION('',(-1.,0.E+000,0.E+000));
#390 = DIRECTION('',(0.E+000,-1.,2.22044604925E-016));
#391 = ADVANCED_FACE('',(#392),#417,.F.);
#392 = FACE_BOUND('',#393,.T.);
#393 = EDGE_LOOP('',(#394,#404,#410,#411));
#394 = ORIENTED_EDGE('',*,*,#395,.T.);
#395 = EDGE_CURVE('',#396,#398,#400,.T.);
#396 = VERTEX_POINT('',#397);
#397 = CARTESIAN_POINT('',(-0.3,-0.9,2.85));
#398 = VERTEX_POINT('',#399);
#399 = CARTESIAN_POINT('',(-0.3,-0.9,1.85));
#400 = LINE('',#401,#402);
#401 = CARTESIAN_POINT('',(-0.3,-0.9,2.85));
#402 = VECTOR('',#403,1.);
#403 = DIRECTION('',(0.E+000,-2.22044604925E-016,-1.));
#404 = ORIENTED_EDGE('',*,*,#405,.T.);
#405 = EDGE_CURVE('',#398,#56,#406,.T.);
#406 = LINE('',#407,#408);
#407 = CARTESIAN_POINT('',(-0.3,2.201,1.85));
#408 = VECTOR('',#409,1.);
#409 = DIRECTION('',(0.E+000,-1.,2.22044604925E-016));
#410 = ORIENTED_EDGE('',*,*,#55,.T.);
#411 = ORIENTED_EDGE('',*,*,#412,.F.);
#412 = EDGE_CURVE('',#396,#58,#413,.T.);
#413 = LINE('',#414,#415);
#414 = CARTESIAN_POINT('',(-0.3,2.201,2.85));
#415 = VECTOR('',#416,1.);
#416 = DIRECTION('',(0.E+000,-1.,2.22044604925E-016));
#417 = PLANE('',#418);
#418 = AXIS2_PLACEMENT_3D('',#419,#420,#421);
#419 = CARTESIAN_POINT('',(-0.3,2.201,2.85));
#420 = DIRECTION('',(1.,0.E+000,0.E+000));
#421 = DIRECTION('',(0.E+000,1.,-2.22044604925E-016));
#422 = ADVANCED_FACE('',(#423),#514,.F.);
#423 = FACE_BOUND('',#424,.T.);
#424 = EDGE_LOOP('',(#425,#435,#443,#451,#459,#467,#475,#483,#491,#499,
    #505,#506,#507,#508));
#425 = ORIENTED_EDGE('',*,*,#426,.T.);
#426 = EDGE_CURVE('',#427,#429,#431,.T.);
#427 = VERTEX_POINT('',#428);
#428 = CARTESIAN_POINT('',(7.,-0.9,4.65));
#429 = VERTEX_POINT('',#430);
#430 = CARTESIAN_POINT('',(7.,-0.35,4.65));
#431 = LINE('',#432,#433);
#432 = CARTESIAN_POINT('',(7.,1.8,4.65));
#433 = VECTOR('',#434,1.);
#434 = DIRECTION('',(0.E+000,1.,-2.22044604925E-016));
#435 = ORIENTED_EDGE('',*,*,#436,.T.);
#436 = EDGE_CURVE('',#429,#437,#439,.T.);
#437 = VERTEX_POINT('',#438);
#438 = CARTESIAN_POINT('',(7.,-0.35,2.85));
#439 = LINE('',#440,#441);
#440 = CARTESIAN_POINT('',(7.,-0.35,1.55));
#441 = VECTOR('',#442,1.);
#442 = DIRECTION('',(0.E+000,-4.134424284411E-017,-1.));
#443 = ORIENTED_EDGE('',*,*,#444,.T.);
#444 = EDGE_CURVE('',#437,#445,#447,.T.);
#445 = VERTEX_POINT('',#446);
#446 = CARTESIAN_POINT('',(7.,0.45,2.85));
#447 = LINE('',#448,#449);
#448 = CARTESIAN_POINT('',(7.,1.8,2.85));
#449 = VECTOR('',#450,1.);
#450 = DIRECTION('',(0.E+000,1.,-2.22044604925E-016));
#451 = ORIENTED_EDGE('',*,*,#452,.T.);
#452 = EDGE_CURVE('',#445,#453,#455,.T.);
#453 = VERTEX_POINT('',#454);
#454 = CARTESIAN_POINT('',(7.,0.45,4.65));
#455 = LINE('',#456,#457);
#456 = CARTESIAN_POINT('',(7.,0.45,1.55));
#457 = VECTOR('',#458,1.);
#458 = DIRECTION('',(0.E+000,1.015776968711E-016,1.));
#459 = ORIENTED_EDGE('',*,*,#460,.T.);
#460 = EDGE_CURVE('',#453,#461,#463,.T.);
#461 = VERTEX_POINT('',#462);
#462 = CARTESIAN_POINT('',(7.,1.8,4.65));
#463 = LINE('',#464,#465);
#464 = CARTESIAN_POINT('',(7.,1.8,4.65));
#465 = VECTOR('',#466,1.);
#466 = DIRECTION('',(0.E+000,1.,-2.22044604925E-016));
#467 = ORIENTED_EDGE('',*,*,#468,.F.);
#468 = EDGE_CURVE('',#469,#461,#471,.T.);
#469 = VERTEX_POINT('',#470);
#470 = CARTESIAN_POINT('',(7.,1.8,1.25));
#471 = LINE('',#472,#473);
#472 = CARTESIAN_POINT('',(7.,1.8,1.55));
#473 = VECTOR('',#474,1.);
#474 = DIRECTION('',(0.E+000,2.22044604925E-016,1.));
#475 = ORIENTED_EDGE('',*,*,#476,.F.);
#476 = EDGE_CURVE('',#477,#469,#479,.T.);
#477 = VERTEX_POINT('',#478);
#478 = CARTESIAN_POINT('',(7.,0.75,1.25));
#479 = LINE('',#480,#481);
#480 = CARTESIAN_POINT('',(7.,1.8,1.25));
#481 = VECTOR('',#482,1.);
#482 = DIRECTION('',(0.E+000,1.,-1.552990540398E-017));
#483 = ORIENTED_EDGE('',*,*,#484,.F.);
#484 = EDGE_CURVE('',#485,#477,#487,.T.);
#485 = VERTEX_POINT('',#486);
#486 = CARTESIAN_POINT('',(7.,0.45,1.55));
#487 = LINE('',#488,#489);
#488 = CARTESIAN_POINT('',(7.,0.75,1.25));
#489 = VECTOR('',#490,1.);
#490 = DIRECTION('',(0.E+000,0.707106781187,-0.707106781187));
#491 = ORIENTED_EDGE('',*,*,#492,.F.);
#492 = EDGE_CURVE('',#493,#485,#495,.T.);
#493 = VERTEX_POINT('',#494);
#494 = CARTESIAN_POINT('',(7.,-0.9,1.55));
#495 = LINE('',#496,#497);
#496 = CARTESIAN_POINT('',(7.,1.8,1.55));
#497 = VECTOR('',#498,1.);
#498 = DIRECTION('',(0.E+000,1.,-2.22044604925E-016));
#499 = ORIENTED_EDGE('',*,*,#500,.T.);
#500 = EDGE_CURVE('',#493,#130,#501,.T.);
#501 = LINE('',#502,#503);
#502 = CARTESIAN_POINT('',(7.,-0.9,1.55));
#503 = VECTOR('',#504,1.);
#504 = DIRECTION('',(0.E+000,2.22044604925E-016,1.));
#505 = ORIENTED_EDGE('',*,*,#146,.T.);
#506 = ORIENTED_EDGE('',*,*,#39,.T.);
#507 = ORIENTED_EDGE('',*,*,#170,.F.);
#508 = ORIENTED_EDGE('',*,*,#509,.T.);
#509 = EDGE_CURVE('',#163,#427,#510,.T.);
#510 = LINE('',#511,#512);
#511 = CARTESIAN_POINT('',(7.,-0.9,1.55));
#512 = VECTOR('',#513,1.);
#513 = DIRECTION('',(0.E+000,2.22044604925E-016,1.));
#514 = PLANE('',#515);
#515 = AXIS2_PLACEMENT_3D('',#516,#517,#518);
#516 = CARTESIAN_POINT('',(7.,1.8,1.55));
#517 = DIRECTION('',(1.,0.E+000,0.E+000));
#518 = DIRECTION('',(0.E+000,1.,-2.22044604925E-016));
#519 = ADVANCED_FACE('',(#520),#538,.F.);
#520 = FACE_BOUND('',#521,.T.);
#521 = EDGE_LOOP('',(#522,#530,#531,#532));
#522 = ORIENTED_EDGE('',*,*,#523,.T.);
#523 = EDGE_CURVE('',#524,#396,#526,.T.);
#524 = VERTEX_POINT('',#525);
#525 = CARTESIAN_POINT('',(-1.,-0.9,2.85));
#526 = LINE('',#527,#528);
#527 = CARTESIAN_POINT('',(-1.,-0.9,2.85));
#528 = VECTOR('',#529,1.);
#529 = DIRECTION('',(1.,1.423015351387E-016,-3.15972881501E-032));
#530 = ORIENTED_EDGE('',*,*,#412,.T.);
#531 = ORIENTED_EDGE('',*,*,#81,.T.);
#532 = ORIENTED_EDGE('',*,*,#533,.F.);
#533 = EDGE_CURVE('',#524,#74,#534,.T.);
#534 = LINE('',#535,#536);
#535 = CARTESIAN_POINT('',(-1.,2.201,2.85));
#536 = VECTOR('',#537,1.);
#537 = DIRECTION('',(0.E+000,-1.,2.22044604925E-016));
#538 = PLANE('',#539);
#539 = AXIS2_PLACEMENT_3D('',#540,#541,#542);
#540 = CARTESIAN_POINT('',(-1.,2.201,2.85));
#541 = DIRECTION('',(0.E+000,2.22044604925E-016,1.));
#542 = DIRECTION('',(0.E+000,-1.,2.22044604925E-016));
#543 = ADVANCED_FACE('',(#544),#594,.T.);
#544 = FACE_BOUND('',#545,.T.);
#545 = EDGE_LOOP('',(#546,#556,#564,#572,#580,#586,#587,#588));
#546 = ORIENTED_EDGE('',*,*,#547,.T.);
#547 = EDGE_CURVE('',#548,#550,#552,.T.);
#548 = VERTEX_POINT('',#549);
#549 = CARTESIAN_POINT('',(-1.5,-0.35,4.65));
#550 = VERTEX_POINT('',#551);
#551 = CARTESIAN_POINT('',(-1.5,-0.35,2.85));
#552 = LINE('',#553,#554);
#553 = CARTESIAN_POINT('',(-1.5,-0.35,4.65));
#554 = VECTOR('',#555,1.);
#555 = DIRECTION('',(0.E+000,-4.134424284411E-017,-1.));
#556 = ORIENTED_EDGE('',*,*,#557,.T.);
#557 = EDGE_CURVE('',#550,#558,#560,.T.);
#558 = VERTEX_POINT('',#559);
#559 = CARTESIAN_POINT('',(-1.5,0.45,2.85));
#560 = LINE('',#561,#562);
#561 = CARTESIAN_POINT('',(-1.5,-0.35,2.85));
#562 = VECTOR('',#563,1.);
#563 = DIRECTION('',(0.E+000,1.,-2.22044604925E-016));
#564 = ORIENTED_EDGE('',*,*,#565,.T.);
#565 = EDGE_CURVE('',#558,#566,#568,.T.);
#566 = VERTEX_POINT('',#567);
#567 = CARTESIAN_POINT('',(-1.5,0.45,4.65));
#568 = LINE('',#569,#570);
#569 = CARTESIAN_POINT('',(-1.5,0.45,4.65));
#570 = VECTOR('',#571,1.);
#571 = DIRECTION('',(0.E+000,1.015776968711E-016,1.));
#572 = ORIENTED_EDGE('',*,*,#573,.F.);
#573 = EDGE_CURVE('',#574,#566,#576,.T.);
#574 = VERTEX_POINT('',#575);
#575 = CARTESIAN_POINT('',(-1.5,2.2,4.65));
#576 = LINE('',#577,#578);
#577 = CARTESIAN_POINT('',(-1.5,-1.3,4.65));
#578 = VECTOR('',#579,1.);
#579 = DIRECTION('',(0.E+000,-1.,2.22044604925E-016));
#580 = ORIENTED_EDGE('',*,*,#581,.F.);
#581 = EDGE_CURVE('',#292,#574,#582,.T.);
#582 = LINE('',#583,#584);
#583 = CARTESIAN_POINT('',(-1.5,2.2,0.15));
#584 = VECTOR('',#585,1.);
#585 = DIRECTION('',(0.E+000,-4.525700801771E-016,1.));
#586 = ORIENTED_EDGE('',*,*,#291,.F.);
#587 = ORIENTED_EDGE('',*,*,#89,.F.);
#588 = ORIENTED_EDGE('',*,*,#589,.F.);
#589 = EDGE_CURVE('',#548,#90,#590,.T.);
#590 = LINE('',#591,#592);
#591 = CARTESIAN_POINT('',(-1.5,-1.3,4.65));
#592 = VECTOR('',#593,1.);
#593 = DIRECTION('',(0.E+000,-1.,2.22044604925E-016));
#594 = PLANE('',#595);
#595 = AXIS2_PLACEMENT_3D('',#596,#597,#598);
#596 = CARTESIAN_POINT('',(-1.5,-1.3,4.65));
#597 = DIRECTION('',(-1.,0.E+000,0.E+000));
#598 = DIRECTION('',(0.E+000,-1.,2.22044604925E-016));
#599 = ADVANCED_FACE('',(#600),#634,.F.);
#600 = FACE_BOUND('',#601,.T.);
#601 = EDGE_LOOP('',(#602,#603,#609,#610,#618,#626,#632,#633));
#602 = ORIENTED_EDGE('',*,*,#357,.F.);
#603 = ORIENTED_EDGE('',*,*,#604,.F.);
#604 = EDGE_CURVE('',#429,#350,#605,.T.);
#605 = LINE('',#606,#607);
#606 = CARTESIAN_POINT('',(-1.5,-0.35,4.65));
#607 = VECTOR('',#608,1.);
#608 = DIRECTION('',(1.,0.E+000,0.E+000));
#609 = ORIENTED_EDGE('',*,*,#426,.F.);
#610 = ORIENTED_EDGE('',*,*,#611,.F.);
#611 = EDGE_CURVE('',#612,#427,#614,.T.);
#612 = VERTEX_POINT('',#613);
#613 = CARTESIAN_POINT('',(-1.,-0.9,4.65));
#614 = LINE('',#615,#616);
#615 = CARTESIAN_POINT('',(-1.,-0.9,4.65));
#616 = VECTOR('',#617,1.);
#617 = DIRECTION('',(1.,1.423015351387E-016,-3.15972881501E-032));
#618 = ORIENTED_EDGE('',*,*,#619,.F.);
#619 = EDGE_CURVE('',#620,#612,#622,.T.);
#620 = VERTEX_POINT('',#621);
#621 = CARTESIAN_POINT('',(-1.,-0.35,4.65));
#622 = LINE('',#623,#624);
#623 = CARTESIAN_POINT('',(-1.,1.8,4.65));
#624 = VECTOR('',#625,1.);
#625 = DIRECTION('',(0.E+000,-1.,2.22044604925E-016));
#626 = ORIENTED_EDGE('',*,*,#627,.F.);
#627 = EDGE_CURVE('',#548,#620,#628,.T.);
#628 = LINE('',#629,#630);
#629 = CARTESIAN_POINT('',(-1.5,-0.35,4.65));
#630 = VECTOR('',#631,1.);
#631 = DIRECTION('',(1.,0.E+000,0.E+000));
#632 = ORIENTED_EDGE('',*,*,#589,.T.);
#633 = ORIENTED_EDGE('',*,*,#115,.F.);
#634 = PLANE('',#635);
#635 = AXIS2_PLACEMENT_3D('',#636,#637,#638);
#636 = CARTESIAN_POINT('',(7.5,-1.3,4.65));
#637 = DIRECTION('',(0.E+000,-2.22044604925E-016,-1.));
#638 = DIRECTION('',(0.E+000,1.,-2.22044604925E-016));
#639 = ADVANCED_FACE('',(#640),#729,.F.);
#640 = FACE_BOUND('',#641,.T.);
#641 = EDGE_LOOP('',(#642,#652,#658,#659,#665,#666,#667,#675,#683,#691,
    #699,#707,#715,#723));
#642 = ORIENTED_EDGE('',*,*,#643,.T.);
#643 = EDGE_CURVE('',#644,#646,#648,.T.);
#644 = VERTEX_POINT('',#645);
#645 = CARTESIAN_POINT('',(-1.,0.45,2.85));
#646 = VERTEX_POINT('',#647);
#647 = CARTESIAN_POINT('',(-1.,-0.35,2.85));
#648 = LINE('',#649,#650);
#649 = CARTESIAN_POINT('',(-1.,1.8,2.85));
#650 = VECTOR('',#651,1.);
#651 = DIRECTION('',(0.E+000,-1.,2.22044604925E-016));
#652 = ORIENTED_EDGE('',*,*,#653,.T.);
#653 = EDGE_CURVE('',#646,#620,#654,.T.);
#654 = LINE('',#655,#656);
#655 = CARTESIAN_POINT('',(-1.,-0.35,1.55));
#656 = VECTOR('',#657,1.);
#657 = DIRECTION('',(0.E+000,4.134424284411E-017,1.));
#658 = ORIENTED_EDGE('',*,*,#619,.T.);
#659 = ORIENTED_EDGE('',*,*,#660,.F.);
#660 = EDGE_CURVE('',#524,#612,#661,.T.);
#661 = LINE('',#662,#663);
#662 = CARTESIAN_POINT('',(-1.,-0.9,1.55));
#663 = VECTOR('',#664,1.);
#664 = DIRECTION('',(0.E+000,2.22044604925E-016,1.));
#665 = ORIENTED_EDGE('',*,*,#533,.T.);
#666 = ORIENTED_EDGE('',*,*,#73,.T.);
#667 = ORIENTED_EDGE('',*,*,#668,.F.);
#668 = EDGE_CURVE('',#669,#66,#671,.T.);
#669 = VERTEX_POINT('',#670);
#670 = CARTESIAN_POINT('',(-1.,-0.9,1.85));
#671 = LINE('',#672,#673);
#672 = CARTESIAN_POINT('',(-1.,2.201,1.85));
#673 = VECTOR('',#674,1.);
#674 = DIRECTION('',(0.E+000,-1.,2.22044604925E-016));
#675 = ORIENTED_EDGE('',*,*,#676,.F.);
#676 = EDGE_CURVE('',#677,#669,#679,.T.);
#677 = VERTEX_POINT('',#678);
#678 = CARTESIAN_POINT('',(-1.,-0.9,1.55));
#679 = LINE('',#680,#681);
#680 = CARTESIAN_POINT('',(-1.,-0.9,1.55));
#681 = VECTOR('',#682,1.);
#682 = DIRECTION('',(0.E+000,2.22044604925E-016,1.));
#683 = ORIENTED_EDGE('',*,*,#684,.F.);
#684 = EDGE_CURVE('',#685,#677,#687,.T.);
#685 = VERTEX_POINT('',#686);
#686 = CARTESIAN_POINT('',(-1.,0.45,1.55));
#687 = LINE('',#688,#689);
#688 = CARTESIAN_POINT('',(-1.,1.8,1.55));
#689 = VECTOR('',#690,1.);
#690 = DIRECTION('',(0.E+000,-1.,2.22044604925E-016));
#691 = ORIENTED_EDGE('',*,*,#692,.T.);
#692 = EDGE_CURVE('',#685,#693,#695,.T.);
#693 = VERTEX_POINT('',#694);
#694 = CARTESIAN_POINT('',(-1.,0.75,1.25));
#695 = LINE('',#696,#697);
#696 = CARTESIAN_POINT('',(-1.,0.75,1.25));
#697 = VECTOR('',#698,1.);
#698 = DIRECTION('',(0.E+000,0.707106781187,-0.707106781187));
#699 = ORIENTED_EDGE('',*,*,#700,.T.);
#700 = EDGE_CURVE('',#693,#701,#703,.T.);
#701 = VERTEX_POINT('',#702);
#702 = CARTESIAN_POINT('',(-1.,1.8,1.25));
#703 = LINE('',#704,#705);
#704 = CARTESIAN_POINT('',(-1.,1.8,1.25));
#705 = VECTOR('',#706,1.);
#706 = DIRECTION('',(0.E+000,1.,-1.552990540398E-017));
#707 = ORIENTED_EDGE('',*,*,#708,.T.);
#708 = EDGE_CURVE('',#701,#709,#711,.T.);
#709 = VERTEX_POINT('',#710);
#710 = CARTESIAN_POINT('',(-1.,1.8,4.65));
#711 = LINE('',#712,#713);
#712 = CARTESIAN_POINT('',(-1.,1.8,1.55));
#713 = VECTOR('',#714,1.);
#714 = DIRECTION('',(0.E+000,2.22044604925E-016,1.));
#715 = ORIENTED_EDGE('',*,*,#716,.T.);
#716 = EDGE_CURVE('',#709,#717,#719,.T.);
#717 = VERTEX_POINT('',#718);
#718 = CARTESIAN_POINT('',(-1.,0.45,4.65));
#719 = LINE('',#720,#721);
#720 = CARTESIAN_POINT('',(-1.,1.8,4.65));
#721 = VECTOR('',#722,1.);
#722 = DIRECTION('',(0.E+000,-1.,2.22044604925E-016));
#723 = ORIENTED_EDGE('',*,*,#724,.T.);
#724 = EDGE_CURVE('',#717,#644,#725,.T.);
#725 = LINE('',#726,#727);
#726 = CARTESIAN_POINT('',(-1.,0.45,1.55));
#727 = VECTOR('',#728,1.);
#728 = DIRECTION('',(0.E+000,-1.015776968711E-016,-1.));
#729 = PLANE('',#730);
#730 = AXIS2_PLACEMENT_3D('',#731,#732,#733);
#731 = CARTESIAN_POINT('',(-1.,1.8,1.55));
#732 = DIRECTION('',(-1.,0.E+000,0.E+000));
#733 = DIRECTION('',(0.E+000,-1.,2.22044604925E-016));
#734 = ADVANCED_FACE('',(#735),#746,.F.);
#735 = FACE_BOUND('',#736,.T.);
#736 = EDGE_LOOP('',(#737,#743,#744,#745));
#737 = ORIENTED_EDGE('',*,*,#738,.T.);
#738 = EDGE_CURVE('',#398,#669,#739,.T.);
#739 = LINE('',#740,#741);
#740 = CARTESIAN_POINT('',(-1.,-0.9,1.85));
#741 = VECTOR('',#742,1.);
#742 = DIRECTION('',(-1.,-1.423015351387E-016,3.15972881501E-032));
#743 = ORIENTED_EDGE('',*,*,#668,.T.);
#744 = ORIENTED_EDGE('',*,*,#65,.T.);
#745 = ORIENTED_EDGE('',*,*,#405,.F.);
#746 = PLANE('',#747);
#747 = AXIS2_PLACEMENT_3D('',#748,#749,#750);
#748 = CARTESIAN_POINT('',(-1.,2.201,1.85));
#749 = DIRECTION('',(0.E+000,-2.22044604925E-016,-1.));
#750 = DIRECTION('',(0.E+000,1.,-2.22044604925E-016));
#751 = ADVANCED_FACE('',(#752),#771,.F.);
#752 = FACE_BOUND('',#753,.T.);
#753 = EDGE_LOOP('',(#754,#755,#756,#757,#758,#759,#765,#766,#767,#768,
    #769,#770));
#754 = ORIENTED_EDGE('',*,*,#509,.F.);
#755 = ORIENTED_EDGE('',*,*,#160,.F.);
#756 = ORIENTED_EDGE('',*,*,#322,.F.);
#757 = ORIENTED_EDGE('',*,*,#129,.F.);
#758 = ORIENTED_EDGE('',*,*,#500,.F.);
#759 = ORIENTED_EDGE('',*,*,#760,.F.);
#760 = EDGE_CURVE('',#677,#493,#761,.T.);
#761 = LINE('',#762,#763);
#762 = CARTESIAN_POINT('',(-1.,-0.9,1.55));
#763 = VECTOR('',#764,1.);
#764 = DIRECTION('',(1.,1.423015351387E-016,-3.15972881501E-032));
#765 = ORIENTED_EDGE('',*,*,#676,.T.);
#766 = ORIENTED_EDGE('',*,*,#738,.F.);
#767 = ORIENTED_EDGE('',*,*,#395,.F.);
#768 = ORIENTED_EDGE('',*,*,#523,.F.);
#769 = ORIENTED_EDGE('',*,*,#660,.T.);
#770 = ORIENTED_EDGE('',*,*,#611,.T.);
#771 = PLANE('',#772);
#772 = AXIS2_PLACEMENT_3D('',#773,#774,#775);
#773 = CARTESIAN_POINT('',(-1.,-0.9,1.55));
#774 = DIRECTION('',(1.423015351387E-016,-1.,2.22044604925E-016));
#775 = DIRECTION('',(1.,1.423015351387E-016,-3.15972881501E-032));
#776 = ADVANCED_FACE('',(#777),#803,.T.);
#777 = FACE_BOUND('',#778,.T.);
#778 = EDGE_LOOP('',(#779,#790,#796,#797));
#779 = ORIENTED_EDGE('',*,*,#780,.T.);
#780 = EDGE_CURVE('',#781,#783,#785,.T.);
#781 = VERTEX_POINT('',#782);
#782 = CARTESIAN_POINT('',(4.5,-0.25,-2.55));
#783 = VERTEX_POINT('',#784);
#784 = CARTESIAN_POINT('',(4.5,0.25,-2.55));
#785 = CIRCLE('',#786,0.25);
#786 = AXIS2_PLACEMENT_3D('',#787,#788,#789);
#787 = CARTESIAN_POINT('',(4.5,4.440892098501E-016,-2.55));
#788 = DIRECTION('',(-0.E+000,2.22044604925E-016,1.));
#789 = DIRECTION('',(0.E+000,-1.,2.22044604925E-016));
#790 = ORIENTED_EDGE('',*,*,#791,.T.);
#791 = EDGE_CURVE('',#783,#214,#792,.T.);
#792 = LINE('',#793,#794);
#793 = CARTESIAN_POINT('',(4.5,0.25,-2.55));
#794 = VECTOR('',#795,1.);
#795 = DIRECTION('',(0.E+000,2.22044604925E-016,1.));
#796 = ORIENTED_EDGE('',*,*,#211,.F.);
#797 = ORIENTED_EDGE('',*,*,#798,.F.);
#798 = EDGE_CURVE('',#781,#212,#799,.T.);
#799 = LINE('',#800,#801);
#800 = CARTESIAN_POINT('',(4.5,-0.25,-2.55));
#801 = VECTOR('',#802,1.);
#802 = DIRECTION('',(0.E+000,2.22044604925E-016,1.));
#803 = CYLINDRICAL_SURFACE('',#804,0.25);
#804 = AXIS2_PLACEMENT_3D('',#805,#806,#807);
#805 = CARTESIAN_POINT('',(4.5,4.440892098501E-016,-2.55));
#806 = DIRECTION('',(0.E+000,2.22044604925E-016,1.));
#807 = DIRECTION('',(0.E+000,-1.,2.22044604925E-016));
#808 = ADVANCED_FACE('',(#809),#835,.T.);
#809 = FACE_BOUND('',#810,.T.);
#810 = EDGE_LOOP('',(#811,#819,#828,#834));
#811 = ORIENTED_EDGE('',*,*,#812,.F.);
#812 = EDGE_CURVE('',#813,#234,#815,.T.);
#813 = VERTEX_POINT('',#814);
#814 = CARTESIAN_POINT('',(3.,0.25,-2.55));
#815 = LINE('',#816,#817);
#816 = CARTESIAN_POINT('',(3.,0.25,-2.55));
#817 = VECTOR('',#818,1.);
#818 = DIRECTION('',(0.E+000,2.22044604925E-016,1.));
#819 = ORIENTED_EDGE('',*,*,#820,.T.);
#820 = EDGE_CURVE('',#813,#821,#823,.T.);
#821 = VERTEX_POINT('',#822);
#822 = CARTESIAN_POINT('',(3.,-0.25,-2.55));
#823 = CIRCLE('',#824,0.25);
#824 = AXIS2_PLACEMENT_3D('',#825,#826,#827);
#825 = CARTESIAN_POINT('',(3.,4.440892098501E-016,-2.55));
#826 = DIRECTION('',(-0.E+000,2.22044604925E-016,1.));
#827 = DIRECTION('',(0.E+000,-1.,2.22044604925E-016));
#828 = ORIENTED_EDGE('',*,*,#829,.T.);
#829 = EDGE_CURVE('',#821,#232,#830,.T.);
#830 = LINE('',#831,#832);
#831 = CARTESIAN_POINT('',(3.,-0.25,-2.55));
#832 = VECTOR('',#833,1.);
#833 = DIRECTION('',(0.E+000,2.22044604925E-016,1.));
#834 = ORIENTED_EDGE('',*,*,#242,.F.);
#835 = CYLINDRICAL_SURFACE('',#836,0.25);
#836 = AXIS2_PLACEMENT_3D('',#837,#838,#839);
#837 = CARTESIAN_POINT('',(3.,4.440892098501E-016,-2.55));
#838 = DIRECTION('',(0.E+000,2.22044604925E-016,1.));
#839 = DIRECTION('',(0.E+000,-1.,2.22044604925E-016));
#840 = ADVANCED_FACE('',(#841),#853,.T.);
#841 = FACE_BOUND('',#842,.T.);
#842 = EDGE_LOOP('',(#843,#844,#851,#852));
#843 = ORIENTED_EDGE('',*,*,#791,.F.);
#844 = ORIENTED_EDGE('',*,*,#845,.T.);
#845 = EDGE_CURVE('',#783,#781,#846,.T.);
#846 = CIRCLE('',#847,0.25);
#847 = AXIS2_PLACEMENT_3D('',#848,#849,#850);
#848 = CARTESIAN_POINT('',(4.5,4.440892098501E-016,-2.55));
#849 = DIRECTION('',(-0.E+000,2.22044604925E-016,1.));
#850 = DIRECTION('',(0.E+000,-1.,2.22044604925E-016));
#851 = ORIENTED_EDGE('',*,*,#798,.T.);
#852 = ORIENTED_EDGE('',*,*,#222,.F.);
#853 = CYLINDRICAL_SURFACE('',#854,0.25);
#854 = AXIS2_PLACEMENT_3D('',#855,#856,#857);
#855 = CARTESIAN_POINT('',(4.5,4.440892098501E-016,-2.55));
#856 = DIRECTION('',(0.E+000,2.22044604925E-016,1.));
#857 = DIRECTION('',(0.E+000,-1.,2.22044604925E-016));
#858 = ADVANCED_FACE('',(#859),#885,.T.);
#859 = FACE_BOUND('',#860,.T.);
#860 = EDGE_LOOP('',(#861,#869,#878,#884));
#861 = ORIENTED_EDGE('',*,*,#862,.F.);
#862 = EDGE_CURVE('',#863,#194,#865,.T.);
#863 = VERTEX_POINT('',#864);
#864 = CARTESIAN_POINT('',(6.,0.25,-2.55));
#865 = LINE('',#866,#867);
#866 = CARTESIAN_POINT('',(6.,0.25,-2.55));
#867 = VECTOR('',#868,1.);
#868 = DIRECTION('',(0.E+000,2.22044604925E-016,1.));
#869 = ORIENTED_EDGE('',*,*,#870,.T.);
#870 = EDGE_CURVE('',#863,#871,#873,.T.);
#871 = VERTEX_POINT('',#872);
#872 = CARTESIAN_POINT('',(6.,-0.25,-2.55));
#873 = CIRCLE('',#874,0.25);
#874 = AXIS2_PLACEMENT_3D('',#875,#876,#877);
#875 = CARTESIAN_POINT('',(6.,4.440892098501E-016,-2.55));
#876 = DIRECTION('',(-0.E+000,2.22044604925E-016,1.));
#877 = DIRECTION('',(0.E+000,-1.,2.22044604925E-016));
#878 = ORIENTED_EDGE('',*,*,#879,.T.);
#879 = EDGE_CURVE('',#871,#192,#880,.T.);
#880 = LINE('',#881,#882);
#881 = CARTESIAN_POINT('',(6.,-0.25,-2.55));
#882 = VECTOR('',#883,1.);
#883 = DIRECTION('',(0.E+000,2.22044604925E-016,1.));
#884 = ORIENTED_EDGE('',*,*,#202,.F.);
#885 = CYLINDRICAL_SURFACE('',#886,0.25);
#886 = AXIS2_PLACEMENT_3D('',#887,#888,#889);
#887 = CARTESIAN_POINT('',(6.,4.440892098501E-016,-2.55));
#888 = DIRECTION('',(0.E+000,2.22044604925E-016,1.));
#889 = DIRECTION('',(0.E+000,-1.,2.22044604925E-016));
#890 = ADVANCED_FACE('',(#891),#903,.T.);
#891 = FACE_BOUND('',#892,.T.);
#892 = EDGE_LOOP('',(#893,#900,#901,#902));
#893 = ORIENTED_EDGE('',*,*,#894,.T.);
#894 = EDGE_CURVE('',#871,#863,#895,.T.);
#895 = CIRCLE('',#896,0.25);
#896 = AXIS2_PLACEMENT_3D('',#897,#898,#899);
#897 = CARTESIAN_POINT('',(6.,4.440892098501E-016,-2.55));
#898 = DIRECTION('',(-0.E+000,2.22044604925E-016,1.));
#899 = DIRECTION('',(0.E+000,-1.,2.22044604925E-016));
#900 = ORIENTED_EDGE('',*,*,#862,.T.);
#901 = ORIENTED_EDGE('',*,*,#191,.F.);
#902 = ORIENTED_EDGE('',*,*,#879,.F.);
#903 = CYLINDRICAL_SURFACE('',#904,0.25);
#904 = AXIS2_PLACEMENT_3D('',#905,#906,#907);
#905 = CARTESIAN_POINT('',(6.,4.440892098501E-016,-2.55));
#906 = DIRECTION('',(0.E+000,2.22044604925E-016,1.));
#907 = DIRECTION('',(0.E+000,-1.,2.22044604925E-016));
#908 = ADVANCED_FACE('',(#909),#935,.T.);
#909 = FACE_BOUND('',#910,.T.);
#910 = EDGE_LOOP('',(#911,#919,#928,#934));
#911 = ORIENTED_EDGE('',*,*,#912,.F.);
#912 = EDGE_CURVE('',#913,#274,#915,.T.);
#913 = VERTEX_POINT('',#914);
#914 = CARTESIAN_POINT('',(-6.258882301324E-015,0.25,-2.55));
#915 = LINE('',#916,#917);
#916 = CARTESIAN_POINT('',(-2.6645352591E-015,0.25,-2.55));
#917 = VECTOR('',#918,1.);
#918 = DIRECTION('',(0.E+000,2.22044604925E-016,1.));
#919 = ORIENTED_EDGE('',*,*,#920,.T.);
#920 = EDGE_CURVE('',#913,#921,#923,.T.);
#921 = VERTEX_POINT('',#922);
#922 = CARTESIAN_POINT('',(-6.258882301324E-015,-0.25,-2.55));
#923 = CIRCLE('',#924,0.25);
#924 = AXIS2_PLACEMENT_3D('',#925,#926,#927);
#925 = CARTESIAN_POINT('',(-2.6645352591E-015,4.440892098501E-016,-2.55)
  );
#926 = DIRECTION('',(-0.E+000,2.22044604925E-016,1.));
#927 = DIRECTION('',(0.E+000,-1.,2.22044604925E-016));
#928 = ORIENTED_EDGE('',*,*,#929,.T.);
#929 = EDGE_CURVE('',#921,#272,#930,.T.);
#930 = LINE('',#931,#932);
#931 = CARTESIAN_POINT('',(-2.6645352591E-015,-0.25,-2.55));
#932 = VECTOR('',#933,1.);
#933 = DIRECTION('',(0.E+000,2.22044604925E-016,1.));
#934 = ORIENTED_EDGE('',*,*,#282,.F.);
#935 = CYLINDRICAL_SURFACE('',#936,0.25);
#936 = AXIS2_PLACEMENT_3D('',#937,#938,#939);
#937 = CARTESIAN_POINT('',(-2.6645352591E-015,4.440892098501E-016,-2.55)
  );
#938 = DIRECTION('',(0.E+000,2.22044604925E-016,1.));
#939 = DIRECTION('',(0.E+000,-1.,2.22044604925E-016));
#940 = ADVANCED_FACE('',(#941),#967,.T.);
#941 = FACE_BOUND('',#942,.T.);
#942 = EDGE_LOOP('',(#943,#951,#960,#966));
#943 = ORIENTED_EDGE('',*,*,#944,.F.);
#944 = EDGE_CURVE('',#945,#254,#947,.T.);
#945 = VERTEX_POINT('',#946);
#946 = CARTESIAN_POINT('',(1.5,0.25,-2.55));
#947 = LINE('',#948,#949);
#948 = CARTESIAN_POINT('',(1.5,0.25,-2.55));
#949 = VECTOR('',#950,1.);
#950 = DIRECTION('',(0.E+000,2.22044604925E-016,1.));
#951 = ORIENTED_EDGE('',*,*,#952,.T.);
#952 = EDGE_CURVE('',#945,#953,#955,.T.);
#953 = VERTEX_POINT('',#954);
#954 = CARTESIAN_POINT('',(1.5,-0.25,-2.55));
#955 = CIRCLE('',#956,0.25);
#956 = AXIS2_PLACEMENT_3D('',#957,#958,#959);
#957 = CARTESIAN_POINT('',(1.5,4.440892098501E-016,-2.55));
#958 = DIRECTION('',(-0.E+000,2.22044604925E-016,1.));
#959 = DIRECTION('',(0.E+000,-1.,2.22044604925E-016));
#960 = ORIENTED_EDGE('',*,*,#961,.T.);
#961 = EDGE_CURVE('',#953,#252,#962,.T.);
#962 = LINE('',#963,#964);
#963 = CARTESIAN_POINT('',(1.5,-0.25,-2.55));
#964 = VECTOR('',#965,1.);
#965 = DIRECTION('',(0.E+000,2.22044604925E-016,1.));
#966 = ORIENTED_EDGE('',*,*,#262,.F.);
#967 = CYLINDRICAL_SURFACE('',#968,0.25);
#968 = AXIS2_PLACEMENT_3D('',#969,#970,#971);
#969 = CARTESIAN_POINT('',(1.5,4.440892098501E-016,-2.55));
#970 = DIRECTION('',(0.E+000,2.22044604925E-016,1.));
#971 = DIRECTION('',(0.E+000,-1.,2.22044604925E-016));
#972 = ADVANCED_FACE('',(#973),#985,.T.);
#973 = FACE_BOUND('',#974,.T.);
#974 = EDGE_LOOP('',(#975,#982,#983,#984));
#975 = ORIENTED_EDGE('',*,*,#976,.T.);
#976 = EDGE_CURVE('',#953,#945,#977,.T.);
#977 = CIRCLE('',#978,0.25);
#978 = AXIS2_PLACEMENT_3D('',#979,#980,#981);
#979 = CARTESIAN_POINT('',(1.5,4.440892098501E-016,-2.55));
#980 = DIRECTION('',(-0.E+000,2.22044604925E-016,1.));
#981 = DIRECTION('',(0.E+000,-1.,2.22044604925E-016));
#982 = ORIENTED_EDGE('',*,*,#944,.T.);
#983 = ORIENTED_EDGE('',*,*,#251,.F.);
#984 = ORIENTED_EDGE('',*,*,#961,.F.);
#985 = CYLINDRICAL_SURFACE('',#986,0.25);
#986 = AXIS2_PLACEMENT_3D('',#987,#988,#989);
#987 = CARTESIAN_POINT('',(1.5,4.440892098501E-016,-2.55));
#988 = DIRECTION('',(0.E+000,2.22044604925E-016,1.));
#989 = DIRECTION('',(0.E+000,-1.,2.22044604925E-016));
#990 = ADVANCED_FACE('',(#991),#1002,.F.);
#991 = FACE_BOUND('',#992,.T.);
#992 = EDGE_LOOP('',(#993,#994,#1000,#1001));
#993 = ORIENTED_EDGE('',*,*,#581,.T.);
#994 = ORIENTED_EDGE('',*,*,#995,.F.);
#995 = EDGE_CURVE('',#366,#574,#996,.T.);
#996 = LINE('',#997,#998);
#997 = CARTESIAN_POINT('',(7.5,2.2,4.65));
#998 = VECTOR('',#999,1.);
#999 = DIRECTION('',(-1.,0.E+000,0.E+000));
#1000 = ORIENTED_EDGE('',*,*,#365,.F.);
#1001 = ORIENTED_EDGE('',*,*,#299,.T.);
#1002 = PLANE('',#1003);
#1003 = AXIS2_PLACEMENT_3D('',#1004,#1005,#1006);
#1004 = CARTESIAN_POINT('',(7.5,2.2,0.15));
#1005 = DIRECTION('',(0.E+000,-1.,-4.525700801771E-016));
#1006 = DIRECTION('',(0.E+000,4.525700801771E-016,-1.));
#1007 = ADVANCED_FACE('',(#1008),#1020,.T.);
#1008 = FACE_BOUND('',#1009,.T.);
#1009 = EDGE_LOOP('',(#1010,#1017,#1018,#1019));
#1010 = ORIENTED_EDGE('',*,*,#1011,.T.);
#1011 = EDGE_CURVE('',#921,#913,#1012,.T.);
#1012 = CIRCLE('',#1013,0.25);
#1013 = AXIS2_PLACEMENT_3D('',#1014,#1015,#1016);
#1014 = CARTESIAN_POINT('',(-2.6645352591E-015,4.440892098501E-016,-2.55
    ));
#1015 = DIRECTION('',(-0.E+000,2.22044604925E-016,1.));
#1016 = DIRECTION('',(0.E+000,-1.,2.22044604925E-016));
#1017 = ORIENTED_EDGE('',*,*,#912,.T.);
#1018 = ORIENTED_EDGE('',*,*,#271,.F.);
#1019 = ORIENTED_EDGE('',*,*,#929,.F.);
#1020 = CYLINDRICAL_SURFACE('',#1021,0.25);
#1021 = AXIS2_PLACEMENT_3D('',#1022,#1023,#1024);
#1022 = CARTESIAN_POINT('',(-2.6645352591E-015,4.440892098501E-016,-2.55
    ));
#1023 = DIRECTION('',(0.E+000,2.22044604925E-016,1.));
#1024 = DIRECTION('',(0.E+000,-1.,2.22044604925E-016));
#1025 = ADVANCED_FACE('',(#1026),#1038,.T.);
#1026 = FACE_BOUND('',#1027,.T.);
#1027 = EDGE_LOOP('',(#1028,#1035,#1036,#1037));
#1028 = ORIENTED_EDGE('',*,*,#1029,.T.);
#1029 = EDGE_CURVE('',#821,#813,#1030,.T.);
#1030 = CIRCLE('',#1031,0.25);
#1031 = AXIS2_PLACEMENT_3D('',#1032,#1033,#1034);
#1032 = CARTESIAN_POINT('',(3.,4.440892098501E-016,-2.55));
#1033 = DIRECTION('',(-0.E+000,2.22044604925E-016,1.));
#1034 = DIRECTION('',(0.E+000,-1.,2.22044604925E-016));
#1035 = ORIENTED_EDGE('',*,*,#812,.T.);
#1036 = ORIENTED_EDGE('',*,*,#231,.F.);
#1037 = ORIENTED_EDGE('',*,*,#829,.F.);
#1038 = CYLINDRICAL_SURFACE('',#1039,0.25);
#1039 = AXIS2_PLACEMENT_3D('',#1040,#1041,#1042);
#1040 = CARTESIAN_POINT('',(3.,4.440892098501E-016,-2.55));
#1041 = DIRECTION('',(0.E+000,2.22044604925E-016,1.));
#1042 = DIRECTION('',(0.E+000,-1.,2.22044604925E-016));
#1043 = ADVANCED_FACE('',(#1044),#1069,.F.);
#1044 = FACE_BOUND('',#1045,.T.);
#1045 = EDGE_LOOP('',(#1046,#1047,#1053,#1054,#1060,#1061,#1067,#1068));
#1046 = ORIENTED_EDGE('',*,*,#573,.T.);
#1047 = ORIENTED_EDGE('',*,*,#1048,.T.);
#1048 = EDGE_CURVE('',#566,#717,#1049,.T.);
#1049 = LINE('',#1050,#1051);
#1050 = CARTESIAN_POINT('',(-1.5,0.45,4.65));
#1051 = VECTOR('',#1052,1.);
#1052 = DIRECTION('',(1.,0.E+000,0.E+000));
#1053 = ORIENTED_EDGE('',*,*,#716,.F.);
#1054 = ORIENTED_EDGE('',*,*,#1055,.F.);
#1055 = EDGE_CURVE('',#461,#709,#1056,.T.);
#1056 = LINE('',#1057,#1058);
#1057 = CARTESIAN_POINT('',(-1.,1.8,4.65));
#1058 = VECTOR('',#1059,1.);
#1059 = DIRECTION('',(-1.,-1.084202172486E-016,2.407412430484E-032));
#1060 = ORIENTED_EDGE('',*,*,#460,.F.);
#1061 = ORIENTED_EDGE('',*,*,#1062,.T.);
#1062 = EDGE_CURVE('',#453,#374,#1063,.T.);
#1063 = LINE('',#1064,#1065);
#1064 = CARTESIAN_POINT('',(-1.5,0.45,4.65));
#1065 = VECTOR('',#1066,1.);
#1066 = DIRECTION('',(1.,0.E+000,0.E+000));
#1067 = ORIENTED_EDGE('',*,*,#373,.F.);
#1068 = ORIENTED_EDGE('',*,*,#995,.T.);
#1069 = PLANE('',#1070);
#1070 = AXIS2_PLACEMENT_3D('',#1071,#1072,#1073);
#1071 = CARTESIAN_POINT('',(7.5,-1.3,4.65));
#1072 = DIRECTION('',(0.E+000,-2.22044604925E-016,-1.));
#1073 = DIRECTION('',(0.E+000,1.,-2.22044604925E-016));
#1074 = ADVANCED_FACE('',(#1075),#1086,.F.);
#1075 = FACE_BOUND('',#1076,.T.);
#1076 = EDGE_LOOP('',(#1077,#1078,#1079,#1085));
#1077 = ORIENTED_EDGE('',*,*,#604,.T.);
#1078 = ORIENTED_EDGE('',*,*,#349,.T.);
#1079 = ORIENTED_EDGE('',*,*,#1080,.F.);
#1080 = EDGE_CURVE('',#437,#340,#1081,.T.);
#1081 = LINE('',#1082,#1083);
#1082 = CARTESIAN_POINT('',(-1.5,-0.35,2.85));
#1083 = VECTOR('',#1084,1.);
#1084 = DIRECTION('',(1.,0.E+000,0.E+000));
#1085 = ORIENTED_EDGE('',*,*,#436,.F.);
#1086 = PLANE('',#1087);
#1087 = AXIS2_PLACEMENT_3D('',#1088,#1089,#1090);
#1088 = CARTESIAN_POINT('',(-1.5,-0.35,4.65));
#1089 = DIRECTION('',(0.E+000,-1.,4.134424284411E-017));
#1090 = DIRECTION('',(0.E+000,-4.134424284411E-017,-1.));
#1091 = ADVANCED_FACE('',(#1092),#1103,.F.);
#1092 = FACE_BOUND('',#1093,.T.);
#1093 = EDGE_LOOP('',(#1094,#1095,#1096,#1102));
#1094 = ORIENTED_EDGE('',*,*,#1080,.T.);
#1095 = ORIENTED_EDGE('',*,*,#339,.T.);
#1096 = ORIENTED_EDGE('',*,*,#1097,.F.);
#1097 = EDGE_CURVE('',#445,#342,#1098,.T.);
#1098 = LINE('',#1099,#1100);
#1099 = CARTESIAN_POINT('',(-1.5,0.45,2.85));
#1100 = VECTOR('',#1101,1.);
#1101 = DIRECTION('',(1.,0.E+000,0.E+000));
#1102 = ORIENTED_EDGE('',*,*,#444,.F.);
#1103 = PLANE('',#1104);
#1104 = AXIS2_PLACEMENT_3D('',#1105,#1106,#1107);
#1105 = CARTESIAN_POINT('',(-1.5,-0.35,2.85));
#1106 = DIRECTION('',(0.E+000,-2.22044604925E-016,-1.));
#1107 = DIRECTION('',(0.E+000,1.,-2.22044604925E-016));
#1108 = ADVANCED_FACE('',(#1109),#1115,.F.);
#1109 = FACE_BOUND('',#1110,.T.);
#1110 = EDGE_LOOP('',(#1111,#1112,#1113,#1114));
#1111 = ORIENTED_EDGE('',*,*,#1097,.T.);
#1112 = ORIENTED_EDGE('',*,*,#381,.T.);
#1113 = ORIENTED_EDGE('',*,*,#1062,.F.);
#1114 = ORIENTED_EDGE('',*,*,#452,.F.);
#1115 = PLANE('',#1116);
#1116 = AXIS2_PLACEMENT_3D('',#1117,#1118,#1119);
#1117 = CARTESIAN_POINT('',(-1.5,0.45,4.65));
#1118 = DIRECTION('',(0.E+000,1.,-1.015776968711E-016));
#1119 = DIRECTION('',(0.E+000,1.015776968711E-016,1.));
#1120 = ADVANCED_FACE('',(#1121),#1137,.T.);
#1121 = FACE_BOUND('',#1122,.T.);
#1122 = EDGE_LOOP('',(#1123,#1124,#1130,#1131));
#1123 = ORIENTED_EDGE('',*,*,#692,.F.);
#1124 = ORIENTED_EDGE('',*,*,#1125,.F.);
#1125 = EDGE_CURVE('',#485,#685,#1126,.T.);
#1126 = LINE('',#1127,#1128);
#1127 = CARTESIAN_POINT('',(7.,0.45,1.55));
#1128 = VECTOR('',#1129,1.);
#1129 = DIRECTION('',(-1.,0.E+000,0.E+000));
#1130 = ORIENTED_EDGE('',*,*,#484,.T.);
#1131 = ORIENTED_EDGE('',*,*,#1132,.T.);
#1132 = EDGE_CURVE('',#477,#693,#1133,.T.);
#1133 = LINE('',#1134,#1135);
#1134 = CARTESIAN_POINT('',(7.,0.75,1.25));
#1135 = VECTOR('',#1136,1.);
#1136 = DIRECTION('',(-1.,0.E+000,0.E+000));
#1137 = PLANE('',#1138);
#1138 = AXIS2_PLACEMENT_3D('',#1139,#1140,#1141);
#1139 = CARTESIAN_POINT('',(7.,0.75,1.25));
#1140 = DIRECTION('',(0.E+000,0.707106781187,0.707106781187));
#1141 = DIRECTION('',(0.E+000,-0.707106781187,0.707106781187));
#1142 = ADVANCED_FACE('',(#1143),#1154,.T.);
#1143 = FACE_BOUND('',#1144,.T.);
#1144 = EDGE_LOOP('',(#1145,#1146,#1147,#1148));
#1145 = ORIENTED_EDGE('',*,*,#700,.F.);
#1146 = ORIENTED_EDGE('',*,*,#1132,.F.);
#1147 = ORIENTED_EDGE('',*,*,#476,.T.);
#1148 = ORIENTED_EDGE('',*,*,#1149,.T.);
#1149 = EDGE_CURVE('',#469,#701,#1150,.T.);
#1150 = LINE('',#1151,#1152);
#1151 = CARTESIAN_POINT('',(7.,1.8,1.25));
#1152 = VECTOR('',#1153,1.);
#1153 = DIRECTION('',(-1.,0.E+000,0.E+000));
#1154 = PLANE('',#1155);
#1155 = AXIS2_PLACEMENT_3D('',#1156,#1157,#1158);
#1156 = CARTESIAN_POINT('',(7.,1.8,1.25));
#1157 = DIRECTION('',(0.E+000,1.552990540398E-017,1.));
#1158 = DIRECTION('',(0.E+000,-1.,1.552990540398E-017));
#1159 = ADVANCED_FACE('',(#1160,#1180,#1200,#1220,#1240,#1260),#1266,.T.
  );
#1160 = FACE_BOUND('',#1161,.T.);
#1161 = EDGE_LOOP('',(#1162,#1173));
#1162 = ORIENTED_EDGE('',*,*,#1163,.F.);
#1163 = EDGE_CURVE('',#1164,#1166,#1168,.T.);
#1164 = VERTEX_POINT('',#1165);
#1165 = CARTESIAN_POINT('',(-6.258882301324E-015,-0.25,1.55));
#1166 = VERTEX_POINT('',#1167);
#1167 = CARTESIAN_POINT('',(-6.258882301324E-015,0.25,1.55));
#1168 = CIRCLE('',#1169,0.25);
#1169 = AXIS2_PLACEMENT_3D('',#1170,#1171,#1172);
#1170 = CARTESIAN_POINT('',(-2.6645352591E-015,1.33226762955E-015,1.55)
  );
#1171 = DIRECTION('',(-0.E+000,2.22044604925E-016,1.));
#1172 = DIRECTION('',(0.E+000,-1.,2.22044604925E-016));
#1173 = ORIENTED_EDGE('',*,*,#1174,.F.);
#1174 = EDGE_CURVE('',#1166,#1164,#1175,.T.);
#1175 = CIRCLE('',#1176,0.25);
#1176 = AXIS2_PLACEMENT_3D('',#1177,#1178,#1179);
#1177 = CARTESIAN_POINT('',(-2.6645352591E-015,1.33226762955E-015,1.55)
  );
#1178 = DIRECTION('',(-0.E+000,2.22044604925E-016,1.));
#1179 = DIRECTION('',(0.E+000,-1.,2.22044604925E-016));
#1180 = FACE_BOUND('',#1181,.T.);
#1181 = EDGE_LOOP('',(#1182,#1193));
#1182 = ORIENTED_EDGE('',*,*,#1183,.F.);
#1183 = EDGE_CURVE('',#1184,#1186,#1188,.T.);
#1184 = VERTEX_POINT('',#1185);
#1185 = CARTESIAN_POINT('',(1.5,-0.25,1.55));
#1186 = VERTEX_POINT('',#1187);
#1187 = CARTESIAN_POINT('',(1.5,0.25,1.55));
#1188 = CIRCLE('',#1189,0.25);
#1189 = AXIS2_PLACEMENT_3D('',#1190,#1191,#1192);
#1190 = CARTESIAN_POINT('',(1.5,1.33226762955E-015,1.55));
#1191 = DIRECTION('',(-0.E+000,2.22044604925E-016,1.));
#1192 = DIRECTION('',(0.E+000,-1.,2.22044604925E-016));
#1193 = ORIENTED_EDGE('',*,*,#1194,.F.);
#1194 = EDGE_CURVE('',#1186,#1184,#1195,.T.);
#1195 = CIRCLE('',#1196,0.25);
#1196 = AXIS2_PLACEMENT_3D('',#1197,#1198,#1199);
#1197 = CARTESIAN_POINT('',(1.5,1.33226762955E-015,1.55));
#1198 = DIRECTION('',(-0.E+000,2.22044604925E-016,1.));
#1199 = DIRECTION('',(0.E+000,-1.,2.22044604925E-016));
#1200 = FACE_BOUND('',#1201,.T.);
#1201 = EDGE_LOOP('',(#1202,#1213));
#1202 = ORIENTED_EDGE('',*,*,#1203,.F.);
#1203 = EDGE_CURVE('',#1204,#1206,#1208,.T.);
#1204 = VERTEX_POINT('',#1205);
#1205 = CARTESIAN_POINT('',(3.,-0.25,1.55));
#1206 = VERTEX_POINT('',#1207);
#1207 = CARTESIAN_POINT('',(3.,0.25,1.55));
#1208 = CIRCLE('',#1209,0.25);
#1209 = AXIS2_PLACEMENT_3D('',#1210,#1211,#1212);
#1210 = CARTESIAN_POINT('',(3.,1.33226762955E-015,1.55));
#1211 = DIRECTION('',(-0.E+000,2.22044604925E-016,1.));
#1212 = DIRECTION('',(0.E+000,-1.,2.22044604925E-016));
#1213 = ORIENTED_EDGE('',*,*,#1214,.F.);
#1214 = EDGE_CURVE('',#1206,#1204,#1215,.T.);
#1215 = CIRCLE('',#1216,0.25);
#1216 = AXIS2_PLACEMENT_3D('',#1217,#1218,#1219);
#1217 = CARTESIAN_POINT('',(3.,1.33226762955E-015,1.55));
#1218 = DIRECTION('',(-0.E+000,2.22044604925E-016,1.));
#1219 = DIRECTION('',(0.E+000,-1.,2.22044604925E-016));
#1220 = FACE_BOUND('',#1221,.T.);
#1221 = EDGE_LOOP('',(#1222,#1233));
#1222 = ORIENTED_EDGE('',*,*,#1223,.F.);
#1223 = EDGE_CURVE('',#1224,#1226,#1228,.T.);
#1224 = VERTEX_POINT('',#1225);
#1225 = CARTESIAN_POINT('',(4.5,-0.25,1.55));
#1226 = VERTEX_POINT('',#1227);
#1227 = CARTESIAN_POINT('',(4.5,0.25,1.55));
#1228 = CIRCLE('',#1229,0.25);
#1229 = AXIS2_PLACEMENT_3D('',#1230,#1231,#1232);
#1230 = CARTESIAN_POINT('',(4.5,1.33226762955E-015,1.55));
#1231 = DIRECTION('',(-0.E+000,2.22044604925E-016,1.));
#1232 = DIRECTION('',(0.E+000,-1.,2.22044604925E-016));
#1233 = ORIENTED_EDGE('',*,*,#1234,.F.);
#1234 = EDGE_CURVE('',#1226,#1224,#1235,.T.);
#1235 = CIRCLE('',#1236,0.25);
#1236 = AXIS2_PLACEMENT_3D('',#1237,#1238,#1239);
#1237 = CARTESIAN_POINT('',(4.5,1.33226762955E-015,1.55));
#1238 = DIRECTION('',(-0.E+000,2.22044604925E-016,1.));
#1239 = DIRECTION('',(0.E+000,-1.,2.22044604925E-016));
#1240 = FACE_BOUND('',#1241,.T.);
#1241 = EDGE_LOOP('',(#1242,#1253));
#1242 = ORIENTED_EDGE('',*,*,#1243,.F.);
#1243 = EDGE_CURVE('',#1244,#1246,#1248,.T.);
#1244 = VERTEX_POINT('',#1245);
#1245 = CARTESIAN_POINT('',(6.,-0.25,1.55));
#1246 = VERTEX_POINT('',#1247);
#1247 = CARTESIAN_POINT('',(6.,0.25,1.55));
#1248 = CIRCLE('',#1249,0.25);
#1249 = AXIS2_PLACEMENT_3D('',#1250,#1251,#1252);
#1250 = CARTESIAN_POINT('',(6.,1.33226762955E-015,1.55));
#1251 = DIRECTION('',(-0.E+000,2.22044604925E-016,1.));
#1252 = DIRECTION('',(0.E+000,-1.,2.22044604925E-016));
#1253 = ORIENTED_EDGE('',*,*,#1254,.F.);
#1254 = EDGE_CURVE('',#1246,#1244,#1255,.T.);
#1255 = CIRCLE('',#1256,0.25);
#1256 = AXIS2_PLACEMENT_3D('',#1257,#1258,#1259);
#1257 = CARTESIAN_POINT('',(6.,1.33226762955E-015,1.55));
#1258 = DIRECTION('',(-0.E+000,2.22044604925E-016,1.));
#1259 = DIRECTION('',(0.E+000,-1.,2.22044604925E-016));
#1260 = FACE_BOUND('',#1261,.T.);
#1261 = EDGE_LOOP('',(#1262,#1263,#1264,#1265));
#1262 = ORIENTED_EDGE('',*,*,#492,.T.);
#1263 = ORIENTED_EDGE('',*,*,#1125,.T.);
#1264 = ORIENTED_EDGE('',*,*,#684,.T.);
#1265 = ORIENTED_EDGE('',*,*,#760,.T.);
#1266 = PLANE('',#1267);
#1267 = AXIS2_PLACEMENT_3D('',#1268,#1269,#1270);
#1268 = CARTESIAN_POINT('',(-1.,1.8,1.55));
#1269 = DIRECTION('',(0.E+000,2.22044604925E-016,1.));
#1270 = DIRECTION('',(0.E+000,-1.,2.22044604925E-016));
#1271 = ADVANCED_FACE('',(#1272),#1278,.F.);
#1272 = FACE_BOUND('',#1273,.T.);
#1273 = EDGE_LOOP('',(#1274,#1275,#1276,#1277));
#1274 = ORIENTED_EDGE('',*,*,#1055,.T.);
#1275 = ORIENTED_EDGE('',*,*,#708,.F.);
#1276 = ORIENTED_EDGE('',*,*,#1149,.F.);
#1277 = ORIENTED_EDGE('',*,*,#468,.T.);
#1278 = PLANE('',#1279);
#1279 = AXIS2_PLACEMENT_3D('',#1280,#1281,#1282);
#1280 = CARTESIAN_POINT('',(-1.,1.8,1.55));
#1281 = DIRECTION('',(-1.084202172486E-016,1.,-2.22044604925E-016));
#1282 = DIRECTION('',(-1.,-1.084202172486E-016,2.407412430484E-032));
#1283 = ADVANCED_FACE('',(#1284),#1295,.F.);
#1284 = FACE_BOUND('',#1285,.T.);
#1285 = EDGE_LOOP('',(#1286,#1287,#1288,#1294));
#1286 = ORIENTED_EDGE('',*,*,#1048,.F.);
#1287 = ORIENTED_EDGE('',*,*,#565,.F.);
#1288 = ORIENTED_EDGE('',*,*,#1289,.T.);
#1289 = EDGE_CURVE('',#558,#644,#1290,.T.);
#1290 = LINE('',#1291,#1292);
#1291 = CARTESIAN_POINT('',(-1.5,0.45,2.85));
#1292 = VECTOR('',#1293,1.);
#1293 = DIRECTION('',(1.,0.E+000,0.E+000));
#1294 = ORIENTED_EDGE('',*,*,#724,.F.);
#1295 = PLANE('',#1296);
#1296 = AXIS2_PLACEMENT_3D('',#1297,#1298,#1299);
#1297 = CARTESIAN_POINT('',(-1.5,0.45,4.65));
#1298 = DIRECTION('',(0.E+000,1.,-1.015776968711E-016));
#1299 = DIRECTION('',(0.E+000,1.015776968711E-016,1.));
#1300 = ADVANCED_FACE('',(#1301),#1312,.F.);
#1301 = FACE_BOUND('',#1302,.T.);
#1302 = EDGE_LOOP('',(#1303,#1309,#1310,#1311));
#1303 = ORIENTED_EDGE('',*,*,#1304,.F.);
#1304 = EDGE_CURVE('',#550,#646,#1305,.T.);
#1305 = LINE('',#1306,#1307);
#1306 = CARTESIAN_POINT('',(-1.5,-0.35,2.85));
#1307 = VECTOR('',#1308,1.);
#1308 = DIRECTION('',(1.,0.E+000,0.E+000));
#1309 = ORIENTED_EDGE('',*,*,#547,.F.);
#1310 = ORIENTED_EDGE('',*,*,#627,.T.);
#1311 = ORIENTED_EDGE('',*,*,#653,.F.);
#1312 = PLANE('',#1313);
#1313 = AXIS2_PLACEMENT_3D('',#1314,#1315,#1316);
#1314 = CARTESIAN_POINT('',(-1.5,-0.35,4.65));
#1315 = DIRECTION('',(0.E+000,-1.,4.134424284411E-017));
#1316 = DIRECTION('',(0.E+000,-4.134424284411E-017,-1.));
#1317 = ADVANCED_FACE('',(#1318),#1324,.F.);
#1318 = FACE_BOUND('',#1319,.T.);
#1319 = EDGE_LOOP('',(#1320,#1321,#1322,#1323));
#1320 = ORIENTED_EDGE('',*,*,#1289,.F.);
#1321 = ORIENTED_EDGE('',*,*,#557,.F.);
#1322 = ORIENTED_EDGE('',*,*,#1304,.T.);
#1323 = ORIENTED_EDGE('',*,*,#643,.F.);
#1324 = PLANE('',#1325);
#1325 = AXIS2_PLACEMENT_3D('',#1326,#1327,#1328);
#1326 = CARTESIAN_POINT('',(-1.5,-0.35,2.85));
#1327 = DIRECTION('',(0.E+000,-2.22044604925E-016,-1.));
#1328 = DIRECTION('',(0.E+000,1.,-2.22044604925E-016));
#1329 = ADVANCED_FACE('',(#1330),#1334,.F.);
#1330 = FACE_BOUND('',#1331,.T.);
#1331 = EDGE_LOOP('',(#1332,#1333));
#1332 = ORIENTED_EDGE('',*,*,#780,.F.);
#1333 = ORIENTED_EDGE('',*,*,#845,.F.);
#1334 = PLANE('',#1335);
#1335 = AXIS2_PLACEMENT_3D('',#1336,#1337,#1338);
#1336 = CARTESIAN_POINT('',(4.5,4.440892098501E-016,-2.55));
#1337 = DIRECTION('',(0.E+000,2.22044604925E-016,1.));
#1338 = DIRECTION('',(0.E+000,-1.,2.22044604925E-016));
#1339 = ADVANCED_FACE('',(#1340),#1344,.F.);
#1340 = FACE_BOUND('',#1341,.T.);
#1341 = EDGE_LOOP('',(#1342,#1343));
#1342 = ORIENTED_EDGE('',*,*,#1029,.F.);
#1343 = ORIENTED_EDGE('',*,*,#820,.F.);
#1344 = PLANE('',#1345);
#1345 = AXIS2_PLACEMENT_3D('',#1346,#1347,#1348);
#1346 = CARTESIAN_POINT('',(3.,4.440892098501E-016,-2.55));
#1347 = DIRECTION('',(0.E+000,2.22044604925E-016,1.));
#1348 = DIRECTION('',(0.E+000,-1.,2.22044604925E-016));
#1349 = ADVANCED_FACE('',(#1350),#1354,.F.);
#1350 = FACE_BOUND('',#1351,.T.);
#1351 = EDGE_LOOP('',(#1352,#1353));
#1352 = ORIENTED_EDGE('',*,*,#894,.F.);
#1353 = ORIENTED_EDGE('',*,*,#870,.F.);
#1354 = PLANE('',#1355);
#1355 = AXIS2_PLACEMENT_3D('',#1356,#1357,#1358);
#1356 = CARTESIAN_POINT('',(6.,4.440892098501E-016,-2.55));
#1357 = DIRECTION('',(0.E+000,2.22044604925E-016,1.));
#1358 = DIRECTION('',(0.E+000,-1.,2.22044604925E-016));
#1359 = ADVANCED_FACE('',(#1360),#1364,.F.);
#1360 = FACE_BOUND('',#1361,.T.);
#1361 = EDGE_LOOP('',(#1362,#1363));
#1362 = ORIENTED_EDGE('',*,*,#1011,.F.);
#1363 = ORIENTED_EDGE('',*,*,#920,.F.);
#1364 = PLANE('',#1365);
#1365 = AXIS2_PLACEMENT_3D('',#1366,#1367,#1368);
#1366 = CARTESIAN_POINT('',(-2.6645352591E-015,4.440892098501E-016,-2.55
    ));
#1367 = DIRECTION('',(0.E+000,2.22044604925E-016,1.));
#1368 = DIRECTION('',(0.E+000,-1.,2.22044604925E-016));
#1369 = ADVANCED_FACE('',(#1370),#1374,.F.);
#1370 = FACE_BOUND('',#1371,.T.);
#1371 = EDGE_LOOP('',(#1372,#1373));
#1372 = ORIENTED_EDGE('',*,*,#976,.F.);
#1373 = ORIENTED_EDGE('',*,*,#952,.F.);
#1374 = PLANE('',#1375);
#1375 = AXIS2_PLACEMENT_3D('',#1376,#1377,#1378);
#1376 = CARTESIAN_POINT('',(1.5,4.440892098501E-016,-2.55));
#1377 = DIRECTION('',(0.E+000,2.22044604925E-016,1.));
#1378 = DIRECTION('',(0.E+000,-1.,2.22044604925E-016));
#1379 = ADVANCED_FACE('',(#1380),#1406,.T.);
#1380 = FACE_BOUND('',#1381,.T.);
#1381 = EDGE_LOOP('',(#1382,#1383,#1391,#1400));
#1382 = ORIENTED_EDGE('',*,*,#1183,.T.);
#1383 = ORIENTED_EDGE('',*,*,#1384,.T.);
#1384 = EDGE_CURVE('',#1186,#1385,#1387,.T.);
#1385 = VERTEX_POINT('',#1386);
#1386 = CARTESIAN_POINT('',(1.5,0.25,3.95));
#1387 = LINE('',#1388,#1389);
#1388 = CARTESIAN_POINT('',(1.5,0.25,-2.55));
#1389 = VECTOR('',#1390,1.);
#1390 = DIRECTION('',(0.E+000,2.22044604925E-016,1.));
#1391 = ORIENTED_EDGE('',*,*,#1392,.F.);
#1392 = EDGE_CURVE('',#1393,#1385,#1395,.T.);
#1393 = VERTEX_POINT('',#1394);
#1394 = CARTESIAN_POINT('',(1.5,-0.25,3.95));
#1395 = CIRCLE('',#1396,0.25);
#1396 = AXIS2_PLACEMENT_3D('',#1397,#1398,#1399);
#1397 = CARTESIAN_POINT('',(1.5,1.998401444325E-015,3.95));
#1398 = DIRECTION('',(-0.E+000,2.22044604925E-016,1.));
#1399 = DIRECTION('',(0.E+000,-1.,2.22044604925E-016));
#1400 = ORIENTED_EDGE('',*,*,#1401,.F.);
#1401 = EDGE_CURVE('',#1184,#1393,#1402,.T.);
#1402 = LINE('',#1403,#1404);
#1403 = CARTESIAN_POINT('',(1.5,-0.25,-2.55));
#1404 = VECTOR('',#1405,1.);
#1405 = DIRECTION('',(0.E+000,2.22044604925E-016,1.));
#1406 = CYLINDRICAL_SURFACE('',#1407,0.25);
#1407 = AXIS2_PLACEMENT_3D('',#1408,#1409,#1410);
#1408 = CARTESIAN_POINT('',(1.5,4.440892098501E-016,-2.55));
#1409 = DIRECTION('',(0.E+000,2.22044604925E-016,1.));
#1410 = DIRECTION('',(0.E+000,-1.,2.22044604925E-016));
#1411 = ADVANCED_FACE('',(#1412),#1438,.T.);
#1412 = FACE_BOUND('',#1413,.T.);
#1413 = EDGE_LOOP('',(#1414,#1422,#1423,#1431));
#1414 = ORIENTED_EDGE('',*,*,#1415,.F.);
#1415 = EDGE_CURVE('',#1246,#1416,#1418,.T.);
#1416 = VERTEX_POINT('',#1417);
#1417 = CARTESIAN_POINT('',(6.,0.25,3.95));
#1418 = LINE('',#1419,#1420);
#1419 = CARTESIAN_POINT('',(6.,0.25,-2.55));
#1420 = VECTOR('',#1421,1.);
#1421 = DIRECTION('',(0.E+000,2.22044604925E-016,1.));
#1422 = ORIENTED_EDGE('',*,*,#1254,.T.);
#1423 = ORIENTED_EDGE('',*,*,#1424,.T.);
#1424 = EDGE_CURVE('',#1244,#1425,#1427,.T.);
#1425 = VERTEX_POINT('',#1426);
#1426 = CARTESIAN_POINT('',(6.,-0.25,3.95));
#1427 = LINE('',#1428,#1429);
#1428 = CARTESIAN_POINT('',(6.,-0.25,-2.55));
#1429 = VECTOR('',#1430,1.);
#1430 = DIRECTION('',(0.E+000,2.22044604925E-016,1.));
#1431 = ORIENTED_EDGE('',*,*,#1432,.F.);
#1432 = EDGE_CURVE('',#1416,#1425,#1433,.T.);
#1433 = CIRCLE('',#1434,0.25);
#1434 = AXIS2_PLACEMENT_3D('',#1435,#1436,#1437);
#1435 = CARTESIAN_POINT('',(6.,1.998401444325E-015,3.95));
#1436 = DIRECTION('',(-0.E+000,2.22044604925E-016,1.));
#1437 = DIRECTION('',(0.E+000,-1.,2.22044604925E-016));
#1438 = CYLINDRICAL_SURFACE('',#1439,0.25);
#1439 = AXIS2_PLACEMENT_3D('',#1440,#1441,#1442);
#1440 = CARTESIAN_POINT('',(6.,4.440892098501E-016,-2.55));
#1441 = DIRECTION('',(0.E+000,2.22044604925E-016,1.));
#1442 = DIRECTION('',(0.E+000,-1.,2.22044604925E-016));
#1443 = ADVANCED_FACE('',(#1444),#1456,.T.);
#1444 = FACE_BOUND('',#1445,.T.);
#1445 = EDGE_LOOP('',(#1446,#1447,#1448,#1455));
#1446 = ORIENTED_EDGE('',*,*,#1243,.T.);
#1447 = ORIENTED_EDGE('',*,*,#1415,.T.);
#1448 = ORIENTED_EDGE('',*,*,#1449,.F.);
#1449 = EDGE_CURVE('',#1425,#1416,#1450,.T.);
#1450 = CIRCLE('',#1451,0.25);
#1451 = AXIS2_PLACEMENT_3D('',#1452,#1453,#1454);
#1452 = CARTESIAN_POINT('',(6.,1.998401444325E-015,3.95));
#1453 = DIRECTION('',(-0.E+000,2.22044604925E-016,1.));
#1454 = DIRECTION('',(0.E+000,-1.,2.22044604925E-016));
#1455 = ORIENTED_EDGE('',*,*,#1424,.F.);
#1456 = CYLINDRICAL_SURFACE('',#1457,0.25);
#1457 = AXIS2_PLACEMENT_3D('',#1458,#1459,#1460);
#1458 = CARTESIAN_POINT('',(6.,4.440892098501E-016,-2.55));
#1459 = DIRECTION('',(0.E+000,2.22044604925E-016,1.));
#1460 = DIRECTION('',(0.E+000,-1.,2.22044604925E-016));
#1461 = ADVANCED_FACE('',(#1462),#1488,.T.);
#1462 = FACE_BOUND('',#1463,.T.);
#1463 = EDGE_LOOP('',(#1464,#1465,#1473,#1482));
#1464 = ORIENTED_EDGE('',*,*,#1203,.T.);
#1465 = ORIENTED_EDGE('',*,*,#1466,.T.);
#1466 = EDGE_CURVE('',#1206,#1467,#1469,.T.);
#1467 = VERTEX_POINT('',#1468);
#1468 = CARTESIAN_POINT('',(3.,0.25,3.95));
#1469 = LINE('',#1470,#1471);
#1470 = CARTESIAN_POINT('',(3.,0.25,-2.55));
#1471 = VECTOR('',#1472,1.);
#1472 = DIRECTION('',(0.E+000,2.22044604925E-016,1.));
#1473 = ORIENTED_EDGE('',*,*,#1474,.F.);
#1474 = EDGE_CURVE('',#1475,#1467,#1477,.T.);
#1475 = VERTEX_POINT('',#1476);
#1476 = CARTESIAN_POINT('',(3.,-0.25,3.95));
#1477 = CIRCLE('',#1478,0.25);
#1478 = AXIS2_PLACEMENT_3D('',#1479,#1480,#1481);
#1479 = CARTESIAN_POINT('',(3.,1.998401444325E-015,3.95));
#1480 = DIRECTION('',(-0.E+000,2.22044604925E-016,1.));
#1481 = DIRECTION('',(0.E+000,-1.,2.22044604925E-016));
#1482 = ORIENTED_EDGE('',*,*,#1483,.F.);
#1483 = EDGE_CURVE('',#1204,#1475,#1484,.T.);
#1484 = LINE('',#1485,#1486);
#1485 = CARTESIAN_POINT('',(3.,-0.25,-2.55));
#1486 = VECTOR('',#1487,1.);
#1487 = DIRECTION('',(0.E+000,2.22044604925E-016,1.));
#1488 = CYLINDRICAL_SURFACE('',#1489,0.25);
#1489 = AXIS2_PLACEMENT_3D('',#1490,#1491,#1492);
#1490 = CARTESIAN_POINT('',(3.,4.440892098501E-016,-2.55));
#1491 = DIRECTION('',(0.E+000,2.22044604925E-016,1.));
#1492 = DIRECTION('',(0.E+000,-1.,2.22044604925E-016));
#1493 = ADVANCED_FACE('',(#1494),#1520,.T.);
#1494 = FACE_BOUND('',#1495,.T.);
#1495 = EDGE_LOOP('',(#1496,#1504,#1505,#1513));
#1496 = ORIENTED_EDGE('',*,*,#1497,.F.);
#1497 = EDGE_CURVE('',#1226,#1498,#1500,.T.);
#1498 = VERTEX_POINT('',#1499);
#1499 = CARTESIAN_POINT('',(4.5,0.25,3.95));
#1500 = LINE('',#1501,#1502);
#1501 = CARTESIAN_POINT('',(4.5,0.25,-2.55));
#1502 = VECTOR('',#1503,1.);
#1503 = DIRECTION('',(0.E+000,2.22044604925E-016,1.));
#1504 = ORIENTED_EDGE('',*,*,#1234,.T.);
#1505 = ORIENTED_EDGE('',*,*,#1506,.T.);
#1506 = EDGE_CURVE('',#1224,#1507,#1509,.T.);
#1507 = VERTEX_POINT('',#1508);
#1508 = CARTESIAN_POINT('',(4.5,-0.25,3.95));
#1509 = LINE('',#1510,#1511);
#1510 = CARTESIAN_POINT('',(4.5,-0.25,-2.55));
#1511 = VECTOR('',#1512,1.);
#1512 = DIRECTION('',(0.E+000,2.22044604925E-016,1.));
#1513 = ORIENTED_EDGE('',*,*,#1514,.F.);
#1514 = EDGE_CURVE('',#1498,#1507,#1515,.T.);
#1515 = CIRCLE('',#1516,0.25);
#1516 = AXIS2_PLACEMENT_3D('',#1517,#1518,#1519);
#1517 = CARTESIAN_POINT('',(4.5,1.998401444325E-015,3.95));
#1518 = DIRECTION('',(-0.E+000,2.22044604925E-016,1.));
#1519 = DIRECTION('',(0.E+000,-1.,2.22044604925E-016));
#1520 = CYLINDRICAL_SURFACE('',#1521,0.25);
#1521 = AXIS2_PLACEMENT_3D('',#1522,#1523,#1524);
#1522 = CARTESIAN_POINT('',(4.5,4.440892098501E-016,-2.55));
#1523 = DIRECTION('',(0.E+000,2.22044604925E-016,1.));
#1524 = DIRECTION('',(0.E+000,-1.,2.22044604925E-016));
#1525 = ADVANCED_FACE('',(#1526),#1538,.T.);
#1526 = FACE_BOUND('',#1527,.T.);
#1527 = EDGE_LOOP('',(#1528,#1529,#1530,#1531));
#1528 = ORIENTED_EDGE('',*,*,#1466,.F.);
#1529 = ORIENTED_EDGE('',*,*,#1214,.T.);
#1530 = ORIENTED_EDGE('',*,*,#1483,.T.);
#1531 = ORIENTED_EDGE('',*,*,#1532,.F.);
#1532 = EDGE_CURVE('',#1467,#1475,#1533,.T.);
#1533 = CIRCLE('',#1534,0.25);
#1534 = AXIS2_PLACEMENT_3D('',#1535,#1536,#1537);
#1535 = CARTESIAN_POINT('',(3.,1.998401444325E-015,3.95));
#1536 = DIRECTION('',(-0.E+000,2.22044604925E-016,1.));
#1537 = DIRECTION('',(0.E+000,-1.,2.22044604925E-016));
#1538 = CYLINDRICAL_SURFACE('',#1539,0.25);
#1539 = AXIS2_PLACEMENT_3D('',#1540,#1541,#1542);
#1540 = CARTESIAN_POINT('',(3.,4.440892098501E-016,-2.55));
#1541 = DIRECTION('',(0.E+000,2.22044604925E-016,1.));
#1542 = DIRECTION('',(0.E+000,-1.,2.22044604925E-016));
#1543 = ADVANCED_FACE('',(#1544),#1570,.T.);
#1544 = FACE_BOUND('',#1545,.T.);
#1545 = EDGE_LOOP('',(#1546,#1554,#1555,#1563));
#1546 = ORIENTED_EDGE('',*,*,#1547,.F.);
#1547 = EDGE_CURVE('',#1166,#1548,#1550,.T.);
#1548 = VERTEX_POINT('',#1549);
#1549 = CARTESIAN_POINT('',(-6.258882301324E-015,0.25,3.95));
#1550 = LINE('',#1551,#1552);
#1551 = CARTESIAN_POINT('',(-2.6645352591E-015,0.25,-2.55));
#1552 = VECTOR('',#1553,1.);
#1553 = DIRECTION('',(0.E+000,2.22044604925E-016,1.));
#1554 = ORIENTED_EDGE('',*,*,#1174,.T.);
#1555 = ORIENTED_EDGE('',*,*,#1556,.T.);
#1556 = EDGE_CURVE('',#1164,#1557,#1559,.T.);
#1557 = VERTEX_POINT('',#1558);
#1558 = CARTESIAN_POINT('',(-6.258882301324E-015,-0.25,3.95));
#1559 = LINE('',#1560,#1561);
#1560 = CARTESIAN_POINT('',(-2.6645352591E-015,-0.25,-2.55));
#1561 = VECTOR('',#1562,1.);
#1562 = DIRECTION('',(0.E+000,2.22044604925E-016,1.));
#1563 = ORIENTED_EDGE('',*,*,#1564,.F.);
#1564 = EDGE_CURVE('',#1548,#1557,#1565,.T.);
#1565 = CIRCLE('',#1566,0.25);
#1566 = AXIS2_PLACEMENT_3D('',#1567,#1568,#1569);
#1567 = CARTESIAN_POINT('',(-2.6645352591E-015,1.998401444325E-015,3.95)
  );
#1568 = DIRECTION('',(-0.E+000,2.22044604925E-016,1.));
#1569 = DIRECTION('',(0.E+000,-1.,2.22044604925E-016));
#1570 = CYLINDRICAL_SURFACE('',#1571,0.25);
#1571 = AXIS2_PLACEMENT_3D('',#1572,#1573,#1574);
#1572 = CARTESIAN_POINT('',(-2.6645352591E-015,4.440892098501E-016,-2.55
    ));
#1573 = DIRECTION('',(0.E+000,2.22044604925E-016,1.));
#1574 = DIRECTION('',(0.E+000,-1.,2.22044604925E-016));
#1575 = ADVANCED_FACE('',(#1576),#1588,.T.);
#1576 = FACE_BOUND('',#1577,.T.);
#1577 = EDGE_LOOP('',(#1578,#1579,#1580,#1587));
#1578 = ORIENTED_EDGE('',*,*,#1163,.T.);
#1579 = ORIENTED_EDGE('',*,*,#1547,.T.);
#1580 = ORIENTED_EDGE('',*,*,#1581,.F.);
#1581 = EDGE_CURVE('',#1557,#1548,#1582,.T.);
#1582 = CIRCLE('',#1583,0.25);
#1583 = AXIS2_PLACEMENT_3D('',#1584,#1585,#1586);
#1584 = CARTESIAN_POINT('',(-2.6645352591E-015,1.998401444325E-015,3.95)
  );
#1585 = DIRECTION('',(-0.E+000,2.22044604925E-016,1.));
#1586 = DIRECTION('',(0.E+000,-1.,2.22044604925E-016));
#1587 = ORIENTED_EDGE('',*,*,#1556,.F.);
#1588 = CYLINDRICAL_SURFACE('',#1589,0.25);
#1589 = AXIS2_PLACEMENT_3D('',#1590,#1591,#1592);
#1590 = CARTESIAN_POINT('',(-2.6645352591E-015,4.440892098501E-016,-2.55
    ));
#1591 = DIRECTION('',(0.E+000,2.22044604925E-016,1.));
#1592 = DIRECTION('',(0.E+000,-1.,2.22044604925E-016));
#1593 = ADVANCED_FACE('',(#1594),#1606,.T.);
#1594 = FACE_BOUND('',#1595,.T.);
#1595 = EDGE_LOOP('',(#1596,#1597,#1598,#1599));
#1596 = ORIENTED_EDGE('',*,*,#1384,.F.);
#1597 = ORIENTED_EDGE('',*,*,#1194,.T.);
#1598 = ORIENTED_EDGE('',*,*,#1401,.T.);
#1599 = ORIENTED_EDGE('',*,*,#1600,.F.);
#1600 = EDGE_CURVE('',#1385,#1393,#1601,.T.);
#1601 = CIRCLE('',#1602,0.25);
#1602 = AXIS2_PLACEMENT_3D('',#1603,#1604,#1605);
#1603 = CARTESIAN_POINT('',(1.5,1.998401444325E-015,3.95));
#1604 = DIRECTION('',(-0.E+000,2.22044604925E-016,1.));
#1605 = DIRECTION('',(0.E+000,-1.,2.22044604925E-016));
#1606 = CYLINDRICAL_SURFACE('',#1607,0.25);
#1607 = AXIS2_PLACEMENT_3D('',#1608,#1609,#1610);
#1608 = CARTESIAN_POINT('',(1.5,4.440892098501E-016,-2.55));
#1609 = DIRECTION('',(0.E+000,2.22044604925E-016,1.));
#1610 = DIRECTION('',(0.E+000,-1.,2.22044604925E-016));
#1611 = ADVANCED_FACE('',(#1612),#1624,.T.);
#1612 = FACE_BOUND('',#1613,.T.);
#1613 = EDGE_LOOP('',(#1614,#1615,#1616,#1623));
#1614 = ORIENTED_EDGE('',*,*,#1223,.T.);
#1615 = ORIENTED_EDGE('',*,*,#1497,.T.);
#1616 = ORIENTED_EDGE('',*,*,#1617,.F.);
#1617 = EDGE_CURVE('',#1507,#1498,#1618,.T.);
#1618 = CIRCLE('',#1619,0.25);
#1619 = AXIS2_PLACEMENT_3D('',#1620,#1621,#1622);
#1620 = CARTESIAN_POINT('',(4.5,1.998401444325E-015,3.95));
#1621 = DIRECTION('',(-0.E+000,2.22044604925E-016,1.));
#1622 = DIRECTION('',(0.E+000,-1.,2.22044604925E-016));
#1623 = ORIENTED_EDGE('',*,*,#1506,.F.);
#1624 = CYLINDRICAL_SURFACE('',#1625,0.25);
#1625 = AXIS2_PLACEMENT_3D('',#1626,#1627,#1628);
#1626 = CARTESIAN_POINT('',(4.5,4.440892098501E-016,-2.55));
#1627 = DIRECTION('',(0.E+000,2.22044604925E-016,1.));
#1628 = DIRECTION('',(0.E+000,-1.,2.22044604925E-016));
#1629 = ADVANCED_FACE('',(#1630),#1634,.T.);
#1630 = FACE_BOUND('',#1631,.T.);
#1631 = EDGE_LOOP('',(#1632,#1633));
#1632 = ORIENTED_EDGE('',*,*,#1392,.T.);
#1633 = ORIENTED_EDGE('',*,*,#1600,.T.);
#1634 = PLANE('',#1635);
#1635 = AXIS2_PLACEMENT_3D('',#1636,#1637,#1638);
#1636 = CARTESIAN_POINT('',(1.5,1.998401444325E-015,3.95));
#1637 = DIRECTION('',(0.E+000,2.22044604925E-016,1.));
#1638 = DIRECTION('',(0.E+000,-1.,2.22044604925E-016));
#1639 = ADVANCED_FACE('',(#1640),#1644,.T.);
#1640 = FACE_BOUND('',#1641,.T.);
#1641 = EDGE_LOOP('',(#1642,#1643));
#1642 = ORIENTED_EDGE('',*,*,#1449,.T.);
#1643 = ORIENTED_EDGE('',*,*,#1432,.T.);
#1644 = PLANE('',#1645);
#1645 = AXIS2_PLACEMENT_3D('',#1646,#1647,#1648);
#1646 = CARTESIAN_POINT('',(6.,1.998401444325E-015,3.95));
#1647 = DIRECTION('',(0.E+000,2.22044604925E-016,1.));
#1648 = DIRECTION('',(0.E+000,-1.,2.22044604925E-016));
#1649 = ADVANCED_FACE('',(#1650),#1654,.T.);
#1650 = FACE_BOUND('',#1651,.T.);
#1651 = EDGE_LOOP('',(#1652,#1653));
#1652 = ORIENTED_EDGE('',*,*,#1474,.T.);
#1653 = ORIENTED_EDGE('',*,*,#1532,.T.);
#1654 = PLANE('',#1655);
#1655 = AXIS2_PLACEMENT_3D('',#1656,#1657,#1658);
#1656 = CARTESIAN_POINT('',(3.,1.998401444325E-015,3.95));
#1657 = DIRECTION('',(0.E+000,2.22044604925E-016,1.));
#1658 = DIRECTION('',(0.E+000,-1.,2.22044604925E-016));
#1659 = ADVANCED_FACE('',(#1660),#1664,.T.);
#1660 = FACE_BOUND('',#1661,.T.);
#1661 = EDGE_LOOP('',(#1662,#1663));
#1662 = ORIENTED_EDGE('',*,*,#1617,.T.);
#1663 = ORIENTED_EDGE('',*,*,#1514,.T.);
#1664 = PLANE('',#1665);
#1665 = AXIS2_PLACEMENT_3D('',#1666,#1667,#1668);
#1666 = CARTESIAN_POINT('',(4.5,1.998401444325E-015,3.95));
#1667 = DIRECTION('',(0.E+000,2.22044604925E-016,1.));
#1668 = DIRECTION('',(0.E+000,-1.,2.22044604925E-016));
#1669 = ADVANCED_FACE('',(#1670),#1674,.T.);
#1670 = FACE_BOUND('',#1671,.T.);
#1671 = EDGE_LOOP('',(#1672,#1673));
#1672 = ORIENTED_EDGE('',*,*,#1581,.T.);
#1673 = ORIENTED_EDGE('',*,*,#1564,.T.);
#1674 = PLANE('',#1675);
#1675 = AXIS2_PLACEMENT_3D('',#1676,#1677,#1678);
#1676 = CARTESIAN_POINT('',(-2.6645352591E-015,1.998401444325E-015,3.95)
  );
#1677 = DIRECTION('',(0.E+000,2.22044604925E-016,1.));
#1678 = DIRECTION('',(0.E+000,-1.,2.22044604925E-016));
#1679 = ( GEOMETRIC_REPRESENTATION_CONTEXT(3) 
GLOBAL_UNCERTAINTY_ASSIGNED_CONTEXT((#1683)) 
GLOBAL_UNIT_ASSIGNED_CONTEXT((#1680,#1681,#1682)) REPRESENTATION_CONTEXT
('Context #1','3D Context with UNIT and UNCERTAINTY') );
#1680 = ( LENGTH_UNIT() NAMED_UNIT(*) SI_UNIT(.MILLI.,.METRE.) );
#1681 = ( NAMED_UNIT(*) PLANE_ANGLE_UNIT() SI_UNIT($,.RADIAN.) );
#1682 = ( NAMED_UNIT(*) SI_UNIT($,.STERADIAN.) SOLID_ANGLE_UNIT() );
#1683 = UNCERTAINTY_MEASURE_WITH_UNIT(LENGTH_MEASURE(1.E-007),#1680,
  'distance_accuracy_value','confusion accuracy');
#1684 = PRODUCT_RELATED_PRODUCT_CATEGORY('part',$,(#7));
#1685 = MECHANICAL_DESIGN_GEOMETRIC_PRESENTATION_REPRESENTATION('',(
    #1686,#1694,#1701,#1708,#1715,#1722,#1729,#1736,#1743,#1750,#1757,
    #1764,#1771,#1778,#1785,#1793,#1800,#1807,#1814,#1821,#1828,#1835,
    #1842,#1849,#1856,#1863,#1870,#1877,#1884,#1891,#1898,#1905,#1912,
    #1919,#1926,#1933,#1940,#1947,#1954,#1961,#1968,#1975,#1982,#1989,
    #1996,#2003,#2010,#2017,#2024,#2031,#2038,#2045,#2052,#2059,#2066,
    #2073),#1679);
#1686 = STYLED_ITEM('color',(#1687),#17);
#1687 = PRESENTATION_STYLE_ASSIGNMENT((#1688));
#1688 = SURFACE_STYLE_USAGE(.BOTH.,#1689);
#1689 = SURFACE_SIDE_STYLE('',(#1690));
#1690 = SURFACE_STYLE_FILL_AREA(#1691);
#1691 = FILL_AREA_STYLE('',(#1692));
#1692 = FILL_AREA_STYLE_COLOUR('',#1693);
#1693 = COLOUR_RGB('',0.E+000,0.E+000,0.627451002598);
#1694 = STYLED_ITEM('color',(#1695),#125);
#1695 = PRESENTATION_STYLE_ASSIGNMENT((#1696));
#1696 = SURFACE_STYLE_USAGE(.BOTH.,#1697);
#1697 = SURFACE_SIDE_STYLE('',(#1698));
#1698 = SURFACE_STYLE_FILL_AREA(#1699);
#1699 = FILL_AREA_STYLE('',(#1700));
#1700 = FILL_AREA_STYLE_COLOUR('',#1693);
#1701 = STYLED_ITEM('color',(#1702),#156);
#1702 = PRESENTATION_STYLE_ASSIGNMENT((#1703));
#1703 = SURFACE_STYLE_USAGE(.BOTH.,#1704);
#1704 = SURFACE_SIDE_STYLE('',(#1705));
#1705 = SURFACE_STYLE_FILL_AREA(#1706);
#1706 = FILL_AREA_STYLE('',(#1707));
#1707 = FILL_AREA_STYLE_COLOUR('',#1693);
#1708 = STYLED_ITEM('color',(#1709),#187);
#1709 = PRESENTATION_STYLE_ASSIGNMENT((#1710));
#1710 = SURFACE_STYLE_USAGE(.BOTH.,#1711);
#1711 = SURFACE_SIDE_STYLE('',(#1712));
#1712 = SURFACE_STYLE_FILL_AREA(#1713);
#1713 = FILL_AREA_STYLE('',(#1714));
#1714 = FILL_AREA_STYLE_COLOUR('',#1693);
#1715 = STYLED_ITEM('color',(#1716),#318);
#1716 = PRESENTATION_STYLE_ASSIGNMENT((#1717));
#1717 = SURFACE_STYLE_USAGE(.BOTH.,#1718);
#1718 = SURFACE_SIDE_STYLE('',(#1719));
#1719 = SURFACE_STYLE_FILL_AREA(#1720);
#1720 = FILL_AREA_STYLE('',(#1721));
#1721 = FILL_AREA_STYLE_COLOUR('',#1693);
#1722 = STYLED_ITEM('color',(#1723),#335);
#1723 = PRESENTATION_STYLE_ASSIGNMENT((#1724));
#1724 = SURFACE_STYLE_USAGE(.BOTH.,#1725);
#1725 = SURFACE_SIDE_STYLE('',(#1726));
#1726 = SURFACE_STYLE_FILL_AREA(#1727);
#1727 = FILL_AREA_STYLE('',(#1728));
#1728 = FILL_AREA_STYLE_COLOUR('',#1693);
#1729 = STYLED_ITEM('color',(#1730),#391);
#1730 = PRESENTATION_STYLE_ASSIGNMENT((#1731));
#1731 = SURFACE_STYLE_USAGE(.BOTH.,#1732);
#1732 = SURFACE_SIDE_STYLE('',(#1733));
#1733 = SURFACE_STYLE_FILL_AREA(#1734);
#1734 = FILL_AREA_STYLE('',(#1735));
#1735 = FILL_AREA_STYLE_COLOUR('',#1693);
#1736 = STYLED_ITEM('color',(#1737),#422);
#1737 = PRESENTATION_STYLE_ASSIGNMENT((#1738));
#1738 = SURFACE_STYLE_USAGE(.BOTH.,#1739);
#1739 = SURFACE_SIDE_STYLE('',(#1740));
#1740 = SURFACE_STYLE_FILL_AREA(#1741);
#1741 = FILL_AREA_STYLE('',(#1742));
#1742 = FILL_AREA_STYLE_COLOUR('',#1693);
#1743 = STYLED_ITEM('color',(#1744),#519);
#1744 = PRESENTATION_STYLE_ASSIGNMENT((#1745));
#1745 = SURFACE_STYLE_USAGE(.BOTH.,#1746);
#1746 = SURFACE_SIDE_STYLE('',(#1747));
#1747 = SURFACE_STYLE_FILL_AREA(#1748);
#1748 = FILL_AREA_STYLE('',(#1749));
#1749 = FILL_AREA_STYLE_COLOUR('',#1693);
#1750 = STYLED_ITEM('color',(#1751),#543);
#1751 = PRESENTATION_STYLE_ASSIGNMENT((#1752));
#1752 = SURFACE_STYLE_USAGE(.BOTH.,#1753);
#1753 = SURFACE_SIDE_STYLE('',(#1754));
#1754 = SURFACE_STYLE_FILL_AREA(#1755);
#1755 = FILL_AREA_STYLE('',(#1756));
#1756 = FILL_AREA_STYLE_COLOUR('',#1693);
#1757 = STYLED_ITEM('color',(#1758),#599);
#1758 = PRESENTATION_STYLE_ASSIGNMENT((#1759));
#1759 = SURFACE_STYLE_USAGE(.BOTH.,#1760);
#1760 = SURFACE_SIDE_STYLE('',(#1761));
#1761 = SURFACE_STYLE_FILL_AREA(#1762);
#1762 = FILL_AREA_STYLE('',(#1763));
#1763 = FILL_AREA_STYLE_COLOUR('',#1693);
#1764 = STYLED_ITEM('color',(#1765),#639);
#1765 = PRESENTATION_STYLE_ASSIGNMENT((#1766));
#1766 = SURFACE_STYLE_USAGE(.BOTH.,#1767);
#1767 = SURFACE_SIDE_STYLE('',(#1768));
#1768 = SURFACE_STYLE_FILL_AREA(#1769);
#1769 = FILL_AREA_STYLE('',(#1770));
#1770 = FILL_AREA_STYLE_COLOUR('',#1693);
#1771 = STYLED_ITEM('color',(#1772),#734);
#1772 = PRESENTATION_STYLE_ASSIGNMENT((#1773));
#1773 = SURFACE_STYLE_USAGE(.BOTH.,#1774);
#1774 = SURFACE_SIDE_STYLE('',(#1775));
#1775 = SURFACE_STYLE_FILL_AREA(#1776);
#1776 = FILL_AREA_STYLE('',(#1777));
#1777 = FILL_AREA_STYLE_COLOUR('',#1693);
#1778 = STYLED_ITEM('color',(#1779),#751);
#1779 = PRESENTATION_STYLE_ASSIGNMENT((#1780));
#1780 = SURFACE_STYLE_USAGE(.BOTH.,#1781);
#1781 = SURFACE_SIDE_STYLE('',(#1782));
#1782 = SURFACE_STYLE_FILL_AREA(#1783);
#1783 = FILL_AREA_STYLE('',(#1784));
#1784 = FILL_AREA_STYLE_COLOUR('',#1693);
#1785 = STYLED_ITEM('color',(#1786),#776);
#1786 = PRESENTATION_STYLE_ASSIGNMENT((#1787));
#1787 = SURFACE_STYLE_USAGE(.BOTH.,#1788);
#1788 = SURFACE_SIDE_STYLE('',(#1789));
#1789 = SURFACE_STYLE_FILL_AREA(#1790);
#1790 = FILL_AREA_STYLE('',(#1791));
#1791 = FILL_AREA_STYLE_COLOUR('',#1792);
#1792 = COLOUR_RGB('',0.752941191196,0.752941191196,0.752941191196);
#1793 = STYLED_ITEM('color',(#1794),#808);
#1794 = PRESENTATION_STYLE_ASSIGNMENT((#1795));
#1795 = SURFACE_STYLE_USAGE(.BOTH.,#1796);
#1796 = SURFACE_SIDE_STYLE('',(#1797));
#1797 = SURFACE_STYLE_FILL_AREA(#1798);
#1798 = FILL_AREA_STYLE('',(#1799));
#1799 = FILL_AREA_STYLE_COLOUR('',#1792);
#1800 = STYLED_ITEM('color',(#1801),#840);
#1801 = PRESENTATION_STYLE_ASSIGNMENT((#1802));
#1802 = SURFACE_STYLE_USAGE(.BOTH.,#1803);
#1803 = SURFACE_SIDE_STYLE('',(#1804));
#1804 = SURFACE_STYLE_FILL_AREA(#1805);
#1805 = FILL_AREA_STYLE('',(#1806));
#1806 = FILL_AREA_STYLE_COLOUR('',#1792);
#1807 = STYLED_ITEM('color',(#1808),#858);
#1808 = PRESENTATION_STYLE_ASSIGNMENT((#1809));
#1809 = SURFACE_STYLE_USAGE(.BOTH.,#1810);
#1810 = SURFACE_SIDE_STYLE('',(#1811));
#1811 = SURFACE_STYLE_FILL_AREA(#1812);
#1812 = FILL_AREA_STYLE('',(#1813));
#1813 = FILL_AREA_STYLE_COLOUR('',#1792);
#1814 = STYLED_ITEM('color',(#1815),#890);
#1815 = PRESENTATION_STYLE_ASSIGNMENT((#1816));
#1816 = SURFACE_STYLE_USAGE(.BOTH.,#1817);
#1817 = SURFACE_SIDE_STYLE('',(#1818));
#1818 = SURFACE_STYLE_FILL_AREA(#1819);
#1819 = FILL_AREA_STYLE('',(#1820));
#1820 = FILL_AREA_STYLE_COLOUR('',#1792);
#1821 = STYLED_ITEM('color',(#1822),#908);
#1822 = PRESENTATION_STYLE_ASSIGNMENT((#1823));
#1823 = SURFACE_STYLE_USAGE(.BOTH.,#1824);
#1824 = SURFACE_SIDE_STYLE('',(#1825));
#1825 = SURFACE_STYLE_FILL_AREA(#1826);
#1826 = FILL_AREA_STYLE('',(#1827));
#1827 = FILL_AREA_STYLE_COLOUR('',#1792);
#1828 = STYLED_ITEM('color',(#1829),#940);
#1829 = PRESENTATION_STYLE_ASSIGNMENT((#1830));
#1830 = SURFACE_STYLE_USAGE(.BOTH.,#1831);
#1831 = SURFACE_SIDE_STYLE('',(#1832));
#1832 = SURFACE_STYLE_FILL_AREA(#1833);
#1833 = FILL_AREA_STYLE('',(#1834));
#1834 = FILL_AREA_STYLE_COLOUR('',#1792);
#1835 = STYLED_ITEM('color',(#1836),#972);
#1836 = PRESENTATION_STYLE_ASSIGNMENT((#1837));
#1837 = SURFACE_STYLE_USAGE(.BOTH.,#1838);
#1838 = SURFACE_SIDE_STYLE('',(#1839));
#1839 = SURFACE_STYLE_FILL_AREA(#1840);
#1840 = FILL_AREA_STYLE('',(#1841));
#1841 = FILL_AREA_STYLE_COLOUR('',#1792);
#1842 = STYLED_ITEM('color',(#1843),#990);
#1843 = PRESENTATION_STYLE_ASSIGNMENT((#1844));
#1844 = SURFACE_STYLE_USAGE(.BOTH.,#1845);
#1845 = SURFACE_SIDE_STYLE('',(#1846));
#1846 = SURFACE_STYLE_FILL_AREA(#1847);
#1847 = FILL_AREA_STYLE('',(#1848));
#1848 = FILL_AREA_STYLE_COLOUR('',#1693);
#1849 = STYLED_ITEM('color',(#1850),#1007);
#1850 = PRESENTATION_STYLE_ASSIGNMENT((#1851));
#1851 = SURFACE_STYLE_USAGE(.BOTH.,#1852);
#1852 = SURFACE_SIDE_STYLE('',(#1853));
#1853 = SURFACE_STYLE_FILL_AREA(#1854);
#1854 = FILL_AREA_STYLE('',(#1855));
#1855 = FILL_AREA_STYLE_COLOUR('',#1792);
#1856 = STYLED_ITEM('color',(#1857),#1025);
#1857 = PRESENTATION_STYLE_ASSIGNMENT((#1858));
#1858 = SURFACE_STYLE_USAGE(.BOTH.,#1859);
#1859 = SURFACE_SIDE_STYLE('',(#1860));
#1860 = SURFACE_STYLE_FILL_AREA(#1861);
#1861 = FILL_AREA_STYLE('',(#1862));
#1862 = FILL_AREA_STYLE_COLOUR('',#1792);
#1863 = STYLED_ITEM('color',(#1864),#1043);
#1864 = PRESENTATION_STYLE_ASSIGNMENT((#1865));
#1865 = SURFACE_STYLE_USAGE(.BOTH.,#1866);
#1866 = SURFACE_SIDE_STYLE('',(#1867));
#1867 = SURFACE_STYLE_FILL_AREA(#1868);
#1868 = FILL_AREA_STYLE('',(#1869));
#1869 = FILL_AREA_STYLE_COLOUR('',#1693);
#1870 = STYLED_ITEM('color',(#1871),#1074);
#1871 = PRESENTATION_STYLE_ASSIGNMENT((#1872));
#1872 = SURFACE_STYLE_USAGE(.BOTH.,#1873);
#1873 = SURFACE_SIDE_STYLE('',(#1874));
#1874 = SURFACE_STYLE_FILL_AREA(#1875);
#1875 = FILL_AREA_STYLE('',(#1876));
#1876 = FILL_AREA_STYLE_COLOUR('',#1693);
#1877 = STYLED_ITEM('color',(#1878),#1091);
#1878 = PRESENTATION_STYLE_ASSIGNMENT((#1879));
#1879 = SURFACE_STYLE_USAGE(.BOTH.,#1880);
#1880 = SURFACE_SIDE_STYLE('',(#1881));
#1881 = SURFACE_STYLE_FILL_AREA(#1882);
#1882 = FILL_AREA_STYLE('',(#1883));
#1883 = FILL_AREA_STYLE_COLOUR('',#1693);
#1884 = STYLED_ITEM('color',(#1885),#1108);
#1885 = PRESENTATION_STYLE_ASSIGNMENT((#1886));
#1886 = SURFACE_STYLE_USAGE(.BOTH.,#1887);
#1887 = SURFACE_SIDE_STYLE('',(#1888));
#1888 = SURFACE_STYLE_FILL_AREA(#1889);
#1889 = FILL_AREA_STYLE('',(#1890));
#1890 = FILL_AREA_STYLE_COLOUR('',#1693);
#1891 = STYLED_ITEM('color',(#1892),#1120);
#1892 = PRESENTATION_STYLE_ASSIGNMENT((#1893));
#1893 = SURFACE_STYLE_USAGE(.BOTH.,#1894);
#1894 = SURFACE_SIDE_STYLE('',(#1895));
#1895 = SURFACE_STYLE_FILL_AREA(#1896);
#1896 = FILL_AREA_STYLE('',(#1897));
#1897 = FILL_AREA_STYLE_COLOUR('',#1693);
#1898 = STYLED_ITEM('color',(#1899),#1142);
#1899 = PRESENTATION_STYLE_ASSIGNMENT((#1900));
#1900 = SURFACE_STYLE_USAGE(.BOTH.,#1901);
#1901 = SURFACE_SIDE_STYLE('',(#1902));
#1902 = SURFACE_STYLE_FILL_AREA(#1903);
#1903 = FILL_AREA_STYLE('',(#1904));
#1904 = FILL_AREA_STYLE_COLOUR('',#1693);
#1905 = STYLED_ITEM('color',(#1906),#1159);
#1906 = PRESENTATION_STYLE_ASSIGNMENT((#1907));
#1907 = SURFACE_STYLE_USAGE(.BOTH.,#1908);
#1908 = SURFACE_SIDE_STYLE('',(#1909));
#1909 = SURFACE_STYLE_FILL_AREA(#1910);
#1910 = FILL_AREA_STYLE('',(#1911));
#1911 = FILL_AREA_STYLE_COLOUR('',#1693);
#1912 = STYLED_ITEM('color',(#1913),#1271);
#1913 = PRESENTATION_STYLE_ASSIGNMENT((#1914));
#1914 = SURFACE_STYLE_USAGE(.BOTH.,#1915);
#1915 = SURFACE_SIDE_STYLE('',(#1916));
#1916 = SURFACE_STYLE_FILL_AREA(#1917);
#1917 = FILL_AREA_STYLE('',(#1918));
#1918 = FILL_AREA_STYLE_COLOUR('',#1693);
#1919 = STYLED_ITEM('color',(#1920),#1283);
#1920 = PRESENTATION_STYLE_ASSIGNMENT((#1921));
#1921 = SURFACE_STYLE_USAGE(.BOTH.,#1922);
#1922 = SURFACE_SIDE_STYLE('',(#1923));
#1923 = SURFACE_STYLE_FILL_AREA(#1924);
#1924 = FILL_AREA_STYLE('',(#1925));
#1925 = FILL_AREA_STYLE_COLOUR('',#1693);
#1926 = STYLED_ITEM('color',(#1927),#1300);
#1927 = PRESENTATION_STYLE_ASSIGNMENT((#1928));
#1928 = SURFACE_STYLE_USAGE(.BOTH.,#1929);
#1929 = SURFACE_SIDE_STYLE('',(#1930));
#1930 = SURFACE_STYLE_FILL_AREA(#1931);
#1931 = FILL_AREA_STYLE('',(#1932));
#1932 = FILL_AREA_STYLE_COLOUR('',#1693);
#1933 = STYLED_ITEM('color',(#1934),#1317);
#1934 = PRESENTATION_STYLE_ASSIGNMENT((#1935));
#1935 = SURFACE_STYLE_USAGE(.BOTH.,#1936);
#1936 = SURFACE_SIDE_STYLE('',(#1937));
#1937 = SURFACE_STYLE_FILL_AREA(#1938);
#1938 = FILL_AREA_STYLE('',(#1939));
#1939 = FILL_AREA_STYLE_COLOUR('',#1693);
#1940 = STYLED_ITEM('color',(#1941),#1329);
#1941 = PRESENTATION_STYLE_ASSIGNMENT((#1942));
#1942 = SURFACE_STYLE_USAGE(.BOTH.,#1943);
#1943 = SURFACE_SIDE_STYLE('',(#1944));
#1944 = SURFACE_STYLE_FILL_AREA(#1945);
#1945 = FILL_AREA_STYLE('',(#1946));
#1946 = FILL_AREA_STYLE_COLOUR('',#1792);
#1947 = STYLED_ITEM('color',(#1948),#1339);
#1948 = PRESENTATION_STYLE_ASSIGNMENT((#1949));
#1949 = SURFACE_STYLE_USAGE(.BOTH.,#1950);
#1950 = SURFACE_SIDE_STYLE('',(#1951));
#1951 = SURFACE_STYLE_FILL_AREA(#1952);
#1952 = FILL_AREA_STYLE('',(#1953));
#1953 = FILL_AREA_STYLE_COLOUR('',#1792);
#1954 = STYLED_ITEM('color',(#1955),#1349);
#1955 = PRESENTATION_STYLE_ASSIGNMENT((#1956));
#1956 = SURFACE_STYLE_USAGE(.BOTH.,#1957);
#1957 = SURFACE_SIDE_STYLE('',(#1958));
#1958 = SURFACE_STYLE_FILL_AREA(#1959);
#1959 = FILL_AREA_STYLE('',(#1960));
#1960 = FILL_AREA_STYLE_COLOUR('',#1792);
#1961 = STYLED_ITEM('color',(#1962),#1359);
#1962 = PRESENTATION_STYLE_ASSIGNMENT((#1963));
#1963 = SURFACE_STYLE_USAGE(.BOTH.,#1964);
#1964 = SURFACE_SIDE_STYLE('',(#1965));
#1965 = SURFACE_STYLE_FILL_AREA(#1966);
#1966 = FILL_AREA_STYLE('',(#1967));
#1967 = FILL_AREA_STYLE_COLOUR('',#1792);
#1968 = STYLED_ITEM('color',(#1969),#1369);
#1969 = PRESENTATION_STYLE_ASSIGNMENT((#1970));
#1970 = SURFACE_STYLE_USAGE(.BOTH.,#1971);
#1971 = SURFACE_SIDE_STYLE('',(#1972));
#1972 = SURFACE_STYLE_FILL_AREA(#1973);
#1973 = FILL_AREA_STYLE('',(#1974));
#1974 = FILL_AREA_STYLE_COLOUR('',#1792);
#1975 = STYLED_ITEM('color',(#1976),#1379);
#1976 = PRESENTATION_STYLE_ASSIGNMENT((#1977));
#1977 = SURFACE_STYLE_USAGE(.BOTH.,#1978);
#1978 = SURFACE_SIDE_STYLE('',(#1979));
#1979 = SURFACE_STYLE_FILL_AREA(#1980);
#1980 = FILL_AREA_STYLE('',(#1981));
#1981 = FILL_AREA_STYLE_COLOUR('',#1792);
#1982 = STYLED_ITEM('color',(#1983),#1411);
#1983 = PRESENTATION_STYLE_ASSIGNMENT((#1984));
#1984 = SURFACE_STYLE_USAGE(.BOTH.,#1985);
#1985 = SURFACE_SIDE_STYLE('',(#1986));
#1986 = SURFACE_STYLE_FILL_AREA(#1987);
#1987 = FILL_AREA_STYLE('',(#1988));
#1988 = FILL_AREA_STYLE_COLOUR('',#1792);
#1989 = STYLED_ITEM('color',(#1990),#1443);
#1990 = PRESENTATION_STYLE_ASSIGNMENT((#1991));
#1991 = SURFACE_STYLE_USAGE(.BOTH.,#1992);
#1992 = SURFACE_SIDE_STYLE('',(#1993));
#1993 = SURFACE_STYLE_FILL_AREA(#1994);
#1994 = FILL_AREA_STYLE('',(#1995));
#1995 = FILL_AREA_STYLE_COLOUR('',#1792);
#1996 = STYLED_ITEM('color',(#1997),#1461);
#1997 = PRESENTATION_STYLE_ASSIGNMENT((#1998));
#1998 = SURFACE_STYLE_USAGE(.BOTH.,#1999);
#1999 = SURFACE_SIDE_STYLE('',(#2000));
#2000 = SURFACE_STYLE_FILL_AREA(#2001);
#2001 = FILL_AREA_STYLE('',(#2002));
#2002 = FILL_AREA_STYLE_COLOUR('',#1792);
#2003 = STYLED_ITEM('color',(#2004),#1493);
#2004 = PRESENTATION_STYLE_ASSIGNMENT((#2005));
#2005 = SURFACE_STYLE_USAGE(.BOTH.,#2006);
#2006 = SURFACE_SIDE_STYLE('',(#2007));
#2007 = SURFACE_STYLE_FILL_AREA(#2008);
#2008 = FILL_AREA_STYLE('',(#2009));
#2009 = FILL_AREA_STYLE_COLOUR('',#1792);
#2010 = STYLED_ITEM('color',(#2011),#1525);
#2011 = PRESENTATION_STYLE_ASSIGNMENT((#2012));
#2012 = SURFACE_STYLE_USAGE(.BOTH.,#2013);
#2013 = SURFACE_SIDE_STYLE('',(#2014));
#2014 = SURFACE_STYLE_FILL_AREA(#2015);
#2015 = FILL_AREA_STYLE('',(#2016));
#2016 = FILL_AREA_STYLE_COLOUR('',#1792);
#2017 = STYLED_ITEM('color',(#2018),#1543);
#2018 = PRESENTATION_STYLE_ASSIGNMENT((#2019));
#2019 = SURFACE_STYLE_USAGE(.BOTH.,#2020);
#2020 = SURFACE_SIDE_STYLE('',(#2021));
#2021 = SURFACE_STYLE_FILL_AREA(#2022);
#2022 = FILL_AREA_STYLE('',(#2023));
#2023 = FILL_AREA_STYLE_COLOUR('',#1792);
#2024 = STYLED_ITEM('color',(#2025),#1575);
#2025 = PRESENTATION_STYLE_ASSIGNMENT((#2026));
#2026 = SURFACE_STYLE_USAGE(.BOTH.,#2027);
#2027 = SURFACE_SIDE_STYLE('',(#2028));
#2028 = SURFACE_STYLE_FILL_AREA(#2029);
#2029 = FILL_AREA_STYLE('',(#2030));
#2030 = FILL_AREA_STYLE_COLOUR('',#1792);
#2031 = STYLED_ITEM('color',(#2032),#1593);
#2032 = PRESENTATION_STYLE_ASSIGNMENT((#2033));
#2033 = SURFACE_STYLE_USAGE(.BOTH.,#2034);
#2034 = SURFACE_SIDE_STYLE('',(#2035));
#2035 = SURFACE_STYLE_FILL_AREA(#2036);
#2036 = FILL_AREA_STYLE('',(#2037));
#2037 = FILL_AREA_STYLE_COLOUR('',#1792);
#2038 = STYLED_ITEM('color',(#2039),#1611);
#2039 = PRESENTATION_STYLE_ASSIGNMENT((#2040));
#2040 = SURFACE_STYLE_USAGE(.BOTH.,#2041);
#2041 = SURFACE_SIDE_STYLE('',(#2042));
#2042 = SURFACE_STYLE_FILL_AREA(#2043);
#2043 = FILL_AREA_STYLE('',(#2044));
#2044 = FILL_AREA_STYLE_COLOUR('',#1792);
#2045 = STYLED_ITEM('color',(#2046),#1629);
#2046 = PRESENTATION_STYLE_ASSIGNMENT((#2047));
#2047 = SURFACE_STYLE_USAGE(.BOTH.,#2048);
#2048 = SURFACE_SIDE_STYLE('',(#2049));
#2049 = SURFACE_STYLE_FILL_AREA(#2050);
#2050 = FILL_AREA_STYLE('',(#2051));
#2051 = FILL_AREA_STYLE_COLOUR('',#1792);
#2052 = STYLED_ITEM('color',(#2053),#1639);
#2053 = PRESENTATION_STYLE_ASSIGNMENT((#2054));
#2054 = SURFACE_STYLE_USAGE(.BOTH.,#2055);
#2055 = SURFACE_SIDE_STYLE('',(#2056));
#2056 = SURFACE_STYLE_FILL_AREA(#2057);
#2057 = FILL_AREA_STYLE('',(#2058));
#2058 = FILL_AREA_STYLE_COLOUR('',#1792);
#2059 = STYLED_ITEM('color',(#2060),#1649);
#2060 = PRESENTATION_STYLE_ASSIGNMENT((#2061));
#2061 = SURFACE_STYLE_USAGE(.BOTH.,#2062);
#2062 = SURFACE_SIDE_STYLE('',(#2063));
#2063 = SURFACE_STYLE_FILL_AREA(#2064);
#2064 = FILL_AREA_STYLE('',(#2065));
#2065 = FILL_AREA_STYLE_COLOUR('',#1792);
#2066 = STYLED_ITEM('color',(#2067),#1659);
#2067 = PRESENTATION_STYLE_ASSIGNMENT((#2068));
#2068 = SURFACE_STYLE_USAGE(.BOTH.,#2069);
#2069 = SURFACE_SIDE_STYLE('',(#2070));
#2070 = SURFACE_STYLE_FILL_AREA(#2071);
#2071 = FILL_AREA_STYLE('',(#2072));
#2072 = FILL_AREA_STYLE_COLOUR('',#1792);
#2073 = STYLED_ITEM('color',(#2074),#1669);
#2074 = PRESENTATION_STYLE_ASSIGNMENT((#2075));
#2075 = SURFACE_STYLE_USAGE(.BOTH.,#2076);
#2076 = SURFACE_SIDE_STYLE('',(#2077));
#2077 = SURFACE_STYLE_FILL_AREA(#2078);
#2078 = FILL_AREA_STYLE('',(#2079));
#2079 = FILL_AREA_STYLE_COLOUR('',#1792);
ENDSEC;
END-ISO-10303-21;
